<?xml version="1.0" encoding="utf-8"?>
<!-- Generator: Adobe Illustrator 19.0.0, SVG Export Plug-In . SVG Version: 6.00 Build 0)  -->
<svg version="1.1" id="Слой_1" xmlns="http://www.w3.org/2000/svg" xmlns:xlink="http://www.w3.org/1999/xlink" x="0px" y="0px"
	 viewBox="240 21 1439 520" style="enable-background:new 240 21 1439 520;" xml:space="preserve">
<style type="text/css">
	.st0{fill:#2B2B2B;}
</style>
<g>
	<polygon class="st0" points="240,277.9 252.5,277.9 252.5,271.2 240,271.2 240,277.9 	"/>
	<polygon class="st0" points="260.7,277.9 273.2,277.9 273.2,261.7 260.7,261.7 260.7,277.9 	"/>
	<polygon class="st0" points="281.3,277.9 293.8,277.9 293.8,254.8 281.3,254.8 281.3,277.9 	"/>
	<polygon class="st0" points="302,277.9 314.5,277.9 314.5,229 302,229 302,277.9 	"/>
	<polygon class="st0" points="322.7,277.9 335.2,277.9 335.2,250.9 322.7,250.9 322.7,277.9 	"/>
	<polygon class="st0" points="343.3,277.9 355.8,277.9 355.8,220.8 343.3,220.8 343.3,277.9 	"/>
	<polygon class="st0" points="364,277.9 376.5,277.9 376.5,195 364,195 364,277.9 	"/>
	<polygon class="st0" points="384.7,277.9 397.2,277.9 397.2,151.8 384.7,151.8 384.7,277.9 	"/>
	<polygon class="st0" points="405.4,277.9 417.9,277.9 417.9,231.6 405.4,231.6 405.4,277.9 	"/>
	<polygon class="st0" points="426,277.9 438.5,277.9 438.5,208.9 426,208.9 426,277.9 	"/>
	<polygon class="st0" points="446.7,277.9 459.2,277.9 459.2,218.4 446.7,218.4 446.7,277.9 	"/>
	<polygon class="st0" points="467.4,277.9 479.9,277.9 479.9,144.4 467.4,144.4 467.4,277.9 	"/>
	<polygon class="st0" points="488,277.9 500.6,277.9 500.6,91.4 488,91.4 488,277.9 	"/>
	<polygon class="st0" points="508.7,277.9 521.2,277.9 521.2,234.7 508.7,234.7 508.7,277.9 	"/>
	<polygon class="st0" points="530.2,277.9 542.7,277.9 542.7,146.3 530.2,146.3 530.2,277.9 	"/>
	<polygon class="st0" points="550.1,277.9 562.6,277.9 562.6,208.9 550.1,208.9 550.1,277.9 	"/>
	<polygon class="st0" points="570.7,277.6 583.2,277.6 583.2,239.6 570.7,239.6 570.7,277.6 	"/>
	<polygon class="st0" points="591.4,277.9 603.9,277.9 603.9,270.9 591.4,270.9 591.4,277.9 	"/>
	<polygon class="st0" points="612.1,277.9 624.6,277.9 624.6,247 612.1,247 612.1,277.9 	"/>
	<polygon class="st0" points="632.8,277.9 645.2,277.9 645.2,216.1 632.8,216.1 632.8,277.9 	"/>
	<polygon class="st0" points="653.4,277.9 665.9,277.9 665.9,140 653.4,140 653.4,277.9 	"/>
	<polygon class="st0" points="674.1,277.9 686.6,277.9 686.6,185.2 674.1,185.2 674.1,277.9 	"/>
	<polygon class="st0" points="694.8,277.9 707.3,277.9 707.3,239.3 694.8,239.3 694.8,277.9 	"/>
	<polygon class="st0" points="715.4,277.9 727.9,277.9 727.9,225.4 715.4,225.4 715.4,277.9 	"/>
	<polygon class="st0" points="736.1,277.9 748.6,277.9 748.6,213.2 736.1,213.2 736.1,277.9 	"/>
	<polygon class="st0" points="756.8,277.9 769.3,277.9 769.3,245.6 756.8,245.6 756.8,277.9 	"/>
	<polygon class="st0" points="777.5,277.9 789.9,277.9 789.9,228.9 777.5,228.9 777.5,277.9 	"/>
	<polygon class="st0" points="798.1,277.9 810.6,277.9 810.6,207.1 798.1,207.1 798.1,277.9 	"/>
	<polygon class="st0" points="818.8,277.9 831.3,277.9 831.3,134.5 818.8,134.5 818.8,277.9 	"/>
	<polygon class="st0" points="839.5,277.9 852,277.9 852,91.6 839.5,91.6 839.5,277.9 	"/>
	<polygon class="st0" points="860.1,277.9 872.6,277.9 872.6,21 860.1,21 860.1,277.9 	"/>
	<polygon class="st0" points="880.8,277.9 893.3,277.9 893.3,76.8 880.8,76.8 880.8,277.9 	"/>
	<polygon class="st0" points="901.5,277.9 914,277.9 914,161.5 901.5,161.5 901.5,277.9 	"/>
	<polygon class="st0" points="922.1,204.2 922.1,277.9 934.6,277.9 934.6,204.2 922.1,204.2 	"/>
	<polygon class="st0" points="942.8,277.9 955.3,277.9 955.3,136.7 942.8,136.7 942.8,277.9 	"/>
	<polygon class="st0" points="963.5,277.9 976,277.9 976,173.8 963.5,173.8 963.5,277.9 	"/>
	<polygon class="st0" points="984.2,277.9 996.7,277.9 996.7,215.4 984.2,215.4 984.2,277.9 	"/>
	<polygon class="st0" points="1004.8,277.9 1017.3,277.9 1017.3,259 1004.8,259 1004.8,277.9 	"/>
	<polygon class="st0" points="1025.5,277.9 1038,277.9 1038,236.7 1025.5,236.7 1025.5,277.9 	"/>
	<polygon class="st0" points="1046.2,277.9 1058.7,277.9 1058.7,271.5 1046.2,271.5 1046.2,277.9 	"/>
	<polygon class="st0" points="1066.8,277.9 1079.3,277.9 1079.3,241.1 1066.8,241.1 1066.8,277.9 	"/>
	<polygon class="st0" points="1087.5,277.9 1100,277.9 1100,219.3 1087.5,219.3 1087.5,277.9 	"/>
	<polygon class="st0" points="1108.2,277.9 1120.7,277.9 1120.7,251.6 1108.2,251.6 1108.2,277.9 	"/>
	<polygon class="st0" points="1128.8,277.9 1141.4,277.9 1141.4,201.4 1128.8,201.4 1128.8,277.9 	"/>
	<polygon class="st0" points="1149.5,277.9 1162,277.9 1162,176.4 1149.5,176.4 1149.5,277.9 	"/>
	<polygon class="st0" points="1170.2,277.9 1182.7,277.9 1182.7,231.9 1170.2,231.9 1170.2,277.9 	"/>
	<polygon class="st0" points="1190.9,277.9 1203.4,277.9 1203.4,270.9 1190.9,270.9 1190.9,277.9 	"/>
	<polygon class="st0" points="1211.5,277.9 1224,277.9 1224,242.7 1211.5,242.7 1211.5,277.9 	"/>
	<polygon class="st0" points="1232.2,277.9 1244.7,277.9 1244.7,258.1 1232.2,258.1 1232.2,277.9 	"/>
	<polygon class="st0" points="1252.9,277.9 1265.4,277.9 1265.4,232.7 1252.9,232.7 1252.9,277.9 	"/>
	<polygon class="st0" points="1273.6,277.9 1286.1,277.9 1286.1,184.9 1273.6,184.9 1273.6,277.9 	"/>
	<polygon class="st0" points="1294.2,277.9 1306.7,277.9 1306.7,132.2 1294.2,132.2 1294.2,277.9 	"/>
	<polygon class="st0" points="1314.9,277.9 1327.4,277.9 1327.4,66 1314.9,66 1314.9,277.9 	"/>
	<polygon class="st0" points="1335.6,277.9 1348.1,277.9 1348.1,171 1335.6,171 1335.6,277.9 	"/>
	<polygon class="st0" points="1356.2,277.9 1368.7,277.9 1368.7,152.2 1356.2,152.2 1356.2,277.9 	"/>
	<polygon class="st0" points="1376.9,277.9 1389.4,277.9 1389.4,194 1376.9,194 1376.9,277.9 	"/>
	<polygon class="st0" points="1397.6,277.9 1410.1,277.9 1410.1,121.2 1397.6,121.2 1397.6,277.9 	"/>
	<polygon class="st0" points="1418.3,277.9 1430.8,277.9 1430.8,91.7 1418.3,91.7 1418.3,277.9 	"/>
	<polygon class="st0" points="1438.9,277.9 1451.4,277.9 1451.4,149.5 1438.9,149.5 1438.9,277.9 	"/>
	<polygon class="st0" points="1459.6,277.9 1472.1,277.9 1472.1,166.8 1459.6,166.8 1459.6,277.9 	"/>
	<polygon class="st0" points="1480.3,277.9 1492.8,277.9 1492.8,228 1480.3,228 1480.3,277.9 	"/>
	<polygon class="st0" points="1500.9,277.9 1513.4,277.9 1513.4,202.6 1500.9,202.6 1500.9,277.9 	"/>
	<polygon class="st0" points="1521.6,277.9 1534.1,277.9 1534.1,237.5 1521.6,237.5 1521.6,277.9 	"/>
	<polygon class="st0" points="1542.3,277.9 1554.8,277.9 1554.8,225 1542.3,225 1542.3,277.9 	"/>
	<polygon class="st0" points="1563,277.9 1575.5,277.9 1575.5,206.2 1563,206.2 1563,277.9 	"/>
	<polygon class="st0" points="1583.6,277.9 1596.1,277.9 1596.1,238 1583.6,238 1583.6,277.9 	"/>
	<polygon class="st0" points="1604.3,277.9 1616.8,277.9 1616.8,253.6 1604.3,253.6 1604.3,277.9 	"/>
	<polygon class="st0" points="1625,277.9 1637.5,277.9 1637.5,243.8 1625,243.8 1625,277.9 	"/>
	<polygon class="st0" points="1645.6,277.9 1658.1,277.9 1658.1,263.9 1645.6,263.9 1645.6,277.9 	"/>
	<polygon class="st0" points="1666.3,270.9 1666.3,277.9 1678.8,277.9 1678.8,270.9 1666.3,270.9 	"/>
	<polygon class="st0" points="240,290.5 252.5,290.5 252.5,283.8 240,283.8 240,290.5 	"/>
	<polygon class="st0" points="260.7,300.1 273.2,300.1 273.2,283.8 260.7,283.8 260.7,300.1 	"/>
	<polygon class="st0" points="281.3,307 293.8,307 293.8,283.8 281.3,283.8 281.3,307 	"/>
	<polygon class="st0" points="302,332.7 314.5,332.7 314.5,283.8 302,283.8 302,332.7 	"/>
	<polygon class="st0" points="322.7,310.8 335.2,310.8 335.2,283.8 322.7,283.8 322.7,310.8 	"/>
	<polygon class="st0" points="343.3,340.9 355.8,340.9 355.8,283.8 343.3,283.8 343.3,340.9 	"/>
	<polygon class="st0" points="364,366.8 376.5,366.8 376.5,283.8 364,283.8 364,366.8 	"/>
	<polygon class="st0" points="384.7,410 397.2,410 397.2,283.8 384.7,283.8 384.7,410 	"/>
	<polygon class="st0" points="405.4,330.2 417.9,330.2 417.9,283.8 405.4,283.8 405.4,330.2 	"/>
	<polygon class="st0" points="426,352.9 438.5,352.9 438.5,283.8 426,283.8 426,352.9 	"/>
	<polygon class="st0" points="446.7,343.3 459.2,343.3 459.2,283.8 446.7,283.8 446.7,343.3 	"/>
	<polygon class="st0" points="467.4,417.3 479.9,417.3 479.9,283.8 467.4,283.8 467.4,417.3 	"/>
	<polygon class="st0" points="488,470.4 500.6,470.4 500.6,283.8 488,283.8 488,470.4 	"/>
	<polygon class="st0" points="508.7,327.1 521.2,327.1 521.2,283.8 508.7,283.8 508.7,327.1 	"/>
	<polygon class="st0" points="530.2,415.5 542.7,415.5 542.7,283.8 530.2,283.8 530.2,415.5 	"/>
	<polygon class="st0" points="550.1,352.9 562.6,352.9 562.6,283.8 550.1,283.8 550.1,352.9 	"/>
	<polygon class="st0" points="570.7,322.1 583.2,322.1 583.2,284.1 570.7,284.1 570.7,322.1 	"/>
	<polygon class="st0" points="591.4,290.8 603.9,290.8 603.9,283.8 591.4,283.8 591.4,290.8 	"/>
	<polygon class="st0" points="612.1,314.8 624.6,314.8 624.6,283.8 612.1,283.8 612.1,314.8 	"/>
	<polygon class="st0" points="632.8,345.7 645.2,345.7 645.2,283.8 632.8,283.8 632.8,345.7 	"/>
	<polygon class="st0" points="653.4,421.7 665.9,421.7 665.9,283.8 653.4,283.8 653.4,421.7 	"/>
	<polygon class="st0" points="674.1,376.6 686.6,376.6 686.6,283.8 674.1,283.8 674.1,376.6 	"/>
	<polygon class="st0" points="694.8,322.4 707.3,322.4 707.3,283.8 694.8,283.8 694.8,322.4 	"/>
	<polygon class="st0" points="715.4,336.3 727.9,336.3 727.9,283.8 715.4,283.8 715.4,336.3 	"/>
	<polygon class="st0" points="736.1,348.5 748.6,348.5 748.6,283.8 736.1,283.8 736.1,348.5 	"/>
	<polygon class="st0" points="756.8,316.2 769.3,316.2 769.3,283.8 756.8,283.8 756.8,316.2 	"/>
	<polygon class="st0" points="777.5,332.9 789.9,332.9 789.9,283.8 777.5,283.8 777.5,332.9 	"/>
	<polygon class="st0" points="798.1,354.6 810.6,354.6 810.6,283.8 798.1,283.8 798.1,354.6 	"/>
	<polygon class="st0" points="818.8,427.3 831.3,427.3 831.3,283.8 818.8,283.8 818.8,427.3 	"/>
	<polygon class="st0" points="839.5,470.1 852,470.1 852,283.8 839.5,283.8 839.5,470.1 	"/>
	<polygon class="st0" points="860.1,540.7 872.6,540.7 872.6,283.8 860.1,283.8 860.1,540.7 	"/>
	<polygon class="st0" points="880.8,485 893.3,485 893.3,283.8 880.8,283.8 880.8,485 	"/>
	<polygon class="st0" points="901.5,400.3 914,400.3 914,283.8 901.5,283.8 901.5,400.3 	"/>
	<polygon class="st0" points="922.1,357.5 934.6,357.5 934.6,283.8 922.1,283.8 922.1,357.5 	"/>
	<polygon class="st0" points="942.8,425.1 955.3,425.1 955.3,283.8 942.8,283.8 942.8,425.1 	"/>
	<polygon class="st0" points="963.5,387.9 976,387.9 976,283.8 963.5,283.8 963.5,387.9 	"/>
	<polygon class="st0" points="984.2,346.3 996.7,346.3 996.7,283.8 984.2,283.8 984.2,346.3 	"/>
	<polygon class="st0" points="1004.8,302.8 1017.3,302.8 1017.3,283.8 1004.8,283.8 1004.8,302.8 	"/>
	<polygon class="st0" points="1025.5,325 1038,325 1038,283.8 1025.5,283.8 1025.5,325 	"/>
	<polygon class="st0" points="1046.2,290.3 1058.7,290.3 1058.7,283.8 1046.2,283.8 1046.2,290.3 	"/>
	<polygon class="st0" points="1066.8,320.6 1079.3,320.6 1079.3,283.8 1066.8,283.8 1066.8,320.6 	"/>
	<polygon class="st0" points="1087.5,342.4 1100,342.4 1100,283.8 1087.5,283.8 1087.5,342.4 	"/>
	<polygon class="st0" points="1108.2,310.1 1120.7,310.1 1120.7,283.8 1108.2,283.8 1108.2,310.1 	"/>
	<polygon class="st0" points="1128.8,360.3 1141.4,360.3 1141.4,283.8 1128.8,283.8 1128.8,360.3 	"/>
	<polygon class="st0" points="1149.5,385.4 1162,385.4 1162,283.8 1149.5,283.8 1149.5,385.4 	"/>
	<polygon class="st0" points="1170.2,329.8 1182.7,329.8 1182.7,283.8 1170.2,283.8 1170.2,329.8 	"/>
	<polygon class="st0" points="1190.9,290.8 1203.4,290.8 1203.4,283.8 1190.9,283.8 1190.9,290.8 	"/>
	<polygon class="st0" points="1211.5,319.1 1224,319.1 1224,283.8 1211.5,283.8 1211.5,319.1 	"/>
	<polygon class="st0" points="1232.2,303.6 1244.7,303.6 1244.7,283.8 1232.2,283.8 1232.2,303.6 	"/>
	<polygon class="st0" points="1252.9,329.1 1265.4,329.1 1265.4,283.8 1252.9,283.8 1252.9,329.1 	"/>
	<polygon class="st0" points="1273.6,376.9 1286.1,376.9 1286.1,283.8 1273.6,283.8 1273.6,376.9 	"/>
	<polygon class="st0" points="1294.2,429.5 1306.7,429.5 1306.7,283.8 1294.2,283.8 1294.2,429.5 	"/>
	<polygon class="st0" points="1314.9,495.7 1327.4,495.7 1327.4,283.8 1314.9,283.8 1314.9,495.7 	"/>
	<polygon class="st0" points="1335.6,390.7 1348.1,390.7 1348.1,283.8 1335.6,283.8 1335.6,390.7 	"/>
	<polygon class="st0" points="1356.2,409.5 1368.7,409.5 1368.7,283.8 1356.2,283.8 1356.2,409.5 	"/>
	<polygon class="st0" points="1376.9,367.7 1389.4,367.7 1389.4,283.8 1376.9,283.8 1376.9,367.7 	"/>
	<polygon class="st0" points="1397.6,440.5 1410.1,440.5 1410.1,283.8 1397.6,283.8 1397.6,440.5 	"/>
	<polygon class="st0" points="1418.3,470.1 1430.8,470.1 1430.8,283.8 1418.3,283.8 1418.3,470.1 	"/>
	<polygon class="st0" points="1438.9,412.2 1451.4,412.2 1451.4,283.8 1438.9,283.8 1438.9,412.2 	"/>
	<polygon class="st0" points="1459.6,394.9 1472.1,394.9 1472.1,283.8 1459.6,283.8 1459.6,394.9 	"/>
	<polygon class="st0" points="1480.3,333.7 1492.8,333.7 1492.8,283.8 1480.3,283.8 1480.3,333.7 	"/>
	<polygon class="st0" points="1500.9,359.1 1513.4,359.1 1513.4,283.8 1500.9,283.8 1500.9,359.1 	"/>
	<polygon class="st0" points="1521.6,324.2 1534.1,324.2 1534.1,283.8 1521.6,283.8 1521.6,324.2 	"/>
	<polygon class="st0" points="1542.3,336.7 1554.8,336.7 1554.8,283.8 1542.3,283.8 1542.3,336.7 	"/>
	<polygon class="st0" points="1563,355.5 1575.5,355.5 1575.5,283.8 1563,283.8 1563,355.5 	"/>
	<polygon class="st0" points="1583.6,323.8 1596.1,323.8 1596.1,283.8 1583.6,283.8 1583.6,323.8 	"/>
	<polygon class="st0" points="1604.3,308.1 1616.8,308.1 1616.8,283.8 1604.3,283.8 1604.3,308.1 	"/>
	<polygon class="st0" points="1625,318 1637.5,318 1637.5,283.8 1625,283.8 1625,318 	"/>
	<polygon class="st0" points="1645.6,297.8 1658.1,297.8 1658.1,283.8 1645.6,283.8 1645.6,297.8 	"/>
	<polygon class="st0" points="1666.3,290.8 1678.8,290.8 1678.8,283.8 1666.3,283.8 1666.3,290.8 	"/>
</g>
</svg>
