<?xml version="1.0" encoding="utf-8"?>
<!-- Generator: Adobe Illustrator 19.0.0, SVG Export Plug-In . SVG Version: 6.00 Build 0)  -->
<svg version="1.1" id="Слой_1" xmlns="http://www.w3.org/2000/svg" xmlns:xlink="http://www.w3.org/1999/xlink" x="0px" y="0px"
	 viewBox="-480 280.5 1438 389" style="enable-background:new -480 280.5 1438 389;" xml:space="preserve">
<style type="text/css">
	.st0{opacity:0.3;}
	.st1{fill:#004CFF;}
</style>
<g id="Work" class="st0">
	<g id="Desktop-9" transform="translate(-1.000000, -476.000000)">
		<g id="Group-627" transform="translate(0.000000, 472.000000)">
			<polygon id="Fill-4" class="st1" points="-416.6,481.6 -406.2,481.6 -406.2,476.4 -416.6,476.4 			"/>
			<polygon id="Fill-207" class="st1" points="452.1,481.6 462.5,481.6 462.5,476.4 452.1,476.4 			"/>
			<polygon id="Fill-208" class="st1" points="452.1,465.6 462.5,465.6 462.5,460.4 452.1,460.4 			"/>
			<polygon id="Fill-209" class="st1" points="452.1,449.6 462.5,449.6 462.5,444.4 452.1,444.4 			"/>
			<g>
				<polygon id="Fill-1" class="st1" points="-458,481.6 -447.6,481.6 -447.6,476.4 -458,476.4 				"/>
				<polygon id="Fill-310" class="st1" points="-458,481.6 -447.6,481.6 -447.6,476.4 -458,476.4 				"/>
				<g>
					<polygon id="Fill-314" class="st1" points="-458,481.6 -447.6,481.6 -447.6,476.4 -458,476.4 					"/>
				</g>
				<g>
					<polygon id="Fill-313" class="st1" points="-478.7,481.6 -468.3,481.6 -468.3,476.4 -478.7,476.4 					"/>
					<polygon id="Fill-315" class="st1" points="-478.7,481.6 -468.3,481.6 -468.3,476.4 -478.7,476.4 					"/>
				</g>
			</g>
			<g>
				<polygon id="Fill-2" class="st1" points="-437.3,481.6 -426.9,481.6 -426.9,476.4 -437.3,476.4 				"/>
				<polygon id="Fill-3" class="st1" points="-437.3,465.6 -426.9,465.6 -426.9,460.4 -437.3,460.4 				"/>
				<polygon id="Fill-311" class="st1" points="-437.3,481.6 -426.9,481.6 -426.9,476.4 -437.3,476.4 				"/>
				<polygon id="Fill-312" class="st1" points="-437.3,497.5 -426.9,497.5 -426.9,492.3 -437.3,492.3 				"/>
				<polygon id="Fill-316" class="st1" points="-416.6,481.6 -406.2,481.6 -406.2,476.4 -416.6,476.4 				"/>
			</g>
			<g>
				<polygon id="Fill-5" class="st1" points="-395.9,481.6 -385.5,481.6 -385.5,476.4 -395.9,476.4 				"/>
				<polygon id="Fill-6" class="st1" points="-395.9,465.6 -385.5,465.6 -385.5,460.4 -395.9,460.4 				"/>
				<polygon id="Fill-7" class="st1" points="-395.9,449.6 -385.5,449.6 -385.5,444.4 -395.9,444.4 				"/>
				<polygon id="Fill-8" class="st1" points="-395.9,433.7 -385.5,433.7 -385.5,428.5 -395.9,428.5 				"/>
				<polygon id="Fill-317" class="st1" points="-395.9,481.6 -385.5,481.6 -385.5,476.4 -395.9,476.4 				"/>
				<polygon id="Fill-318" class="st1" points="-395.9,497.5 -385.5,497.5 -385.5,492.3 -395.9,492.3 				"/>
				<polygon id="Fill-319" class="st1" points="-395.9,513.5 -385.5,513.5 -385.5,508.3 -395.9,508.3 				"/>
				<polygon id="Fill-320" class="st1" points="-395.9,529.5 -385.5,529.5 -385.5,524.3 -395.9,524.3 				"/>
			</g>
			<g>
				<polygon id="Fill-9" class="st1" points="-375.2,481.6 -364.8,481.6 -364.8,476.4 -375.2,476.4 				"/>
				<polygon id="Fill-10" class="st1" points="-375.2,465.6 -364.8,465.6 -364.8,460.4 -375.2,460.4 				"/>
				<polygon id="Fill-321" class="st1" points="-375.2,481.6 -364.8,481.6 -364.8,476.4 -375.2,476.4 				"/>
				<polygon id="Fill-322" class="st1" points="-375.2,497.5 -364.8,497.5 -364.8,492.3 -375.2,492.3 				"/>
			</g>
			<g>
				<polygon id="Fill-11" class="st1" points="-354.5,481.6 -344.1,481.6 -344.1,476.4 -354.5,476.4 				"/>
				<polygon id="Fill-12" class="st1" points="-354.5,465.6 -344.1,465.6 -344.1,460.4 -354.5,460.4 				"/>
				<polygon id="Fill-13" class="st1" points="-354.5,449.6 -344.1,449.6 -344.1,444.4 -354.5,444.4 				"/>
				<polygon id="Fill-14" class="st1" points="-354.5,433.7 -344.1,433.7 -344.1,428.5 -354.5,428.5 				"/>
				<polygon id="Fill-15" class="st1" points="-354.5,417.7 -344.1,417.7 -344.1,412.5 -354.5,412.5 				"/>
				<polygon id="Fill-16" class="st1" points="-354.5,401.7 -344.1,401.7 -344.1,396.5 -354.5,396.5 				"/>
				<polygon id="Fill-323" class="st1" points="-354.5,481.6 -344.1,481.6 -344.1,476.4 -354.5,476.4 				"/>
				<polygon id="Fill-324" class="st1" points="-354.5,497.5 -344.1,497.5 -344.1,492.3 -354.5,492.3 				"/>
				<polygon id="Fill-325" class="st1" points="-354.5,513.5 -344.1,513.5 -344.1,508.3 -354.5,508.3 				"/>
				<polygon id="Fill-326" class="st1" points="-354.5,529.5 -344.1,529.5 -344.1,524.3 -354.5,524.3 				"/>
				<polygon id="Fill-327" class="st1" points="-354.5,545.4 -344.1,545.4 -344.1,540.3 -354.5,540.3 				"/>
				<polygon id="Fill-328" class="st1" points="-354.5,561.4 -344.1,561.4 -344.1,556.2 -354.5,556.2 				"/>
			</g>
			<g>
				<polygon id="Fill-17" class="st1" points="-333.8,481.6 -323.5,481.6 -323.5,476.4 -333.8,476.4 				"/>
				<polygon id="Fill-18" class="st1" points="-333.8,465.6 -323.5,465.6 -323.5,460.4 -333.8,460.4 				"/>
				<polygon id="Fill-19" class="st1" points="-333.8,449.6 -323.5,449.6 -323.5,444.4 -333.8,444.4 				"/>
				<polygon id="Fill-20" class="st1" points="-333.8,433.7 -323.5,433.7 -323.5,428.5 -333.8,428.5 				"/>
				<polygon id="Fill-21" class="st1" points="-333.8,417.7 -323.5,417.7 -323.5,412.5 -333.8,412.5 				"/>
				<polygon id="Fill-22" class="st1" points="-333.8,401.7 -323.5,401.7 -323.5,396.5 -333.8,396.5 				"/>
				<polygon id="Fill-23" class="st1" points="-333.8,385.8 -323.5,385.8 -323.5,380.6 -333.8,380.6 				"/>
				<polygon id="Fill-24" class="st1" points="-333.8,369.8 -323.5,369.8 -323.5,364.6 -333.8,364.6 				"/>
				<polygon id="Fill-329" class="st1" points="-333.8,481.6 -323.5,481.6 -323.5,476.4 -333.8,476.4 				"/>
				<polygon id="Fill-330" class="st1" points="-333.8,497.5 -323.5,497.5 -323.5,492.3 -333.8,492.3 				"/>
				<polygon id="Fill-331" class="st1" points="-333.8,513.5 -323.5,513.5 -323.5,508.3 -333.8,508.3 				"/>
				<polygon id="Fill-332" class="st1" points="-333.8,529.5 -323.5,529.5 -323.5,524.3 -333.8,524.3 				"/>
				<polygon id="Fill-333" class="st1" points="-333.8,545.4 -323.5,545.4 -323.5,540.3 -333.8,540.3 				"/>
				<polygon id="Fill-334" class="st1" points="-333.8,561.4 -323.5,561.4 -323.5,556.2 -333.8,556.2 				"/>
				<polygon id="Fill-335" class="st1" points="-333.8,577.4 -323.5,577.4 -323.5,572.2 -333.8,572.2 				"/>
				<polygon id="Fill-336" class="st1" points="-333.8,593.4 -323.5,593.4 -323.5,588.2 -333.8,588.2 				"/>
			</g>
			<g>
				<polygon id="Fill-25" class="st1" points="-313.1,481.6 -302.8,481.6 -302.8,476.4 -313.1,476.4 				"/>
				<polygon id="Fill-26" class="st1" points="-313.1,465.6 -302.8,465.6 -302.8,460.4 -313.1,460.4 				"/>
				<polygon id="Fill-27" class="st1" points="-313.1,449.6 -302.8,449.6 -302.8,444.4 -313.1,444.4 				"/>
				<polygon id="Fill-28" class="st1" points="-313.1,433.7 -302.8,433.7 -302.8,428.5 -313.1,428.5 				"/>
				<polygon id="Fill-29" class="st1" points="-313.1,417.7 -302.8,417.7 -302.8,412.5 -313.1,412.5 				"/>
				<polygon id="Fill-337" class="st1" points="-313.1,481.6 -302.8,481.6 -302.8,476.4 -313.1,476.4 				"/>
				<polygon id="Fill-338" class="st1" points="-313.1,497.5 -302.8,497.5 -302.8,492.3 -313.1,492.3 				"/>
				<polygon id="Fill-339" class="st1" points="-313.1,513.5 -302.8,513.5 -302.8,508.3 -313.1,508.3 				"/>
				<polygon id="Fill-340" class="st1" points="-313.1,529.5 -302.8,529.5 -302.8,524.3 -313.1,524.3 				"/>
				<polygon id="Fill-341" class="st1" points="-313.1,545.4 -302.8,545.4 -302.8,540.3 -313.1,540.3 				"/>
			</g>
			<g>
				<polygon id="Fill-30" class="st1" points="-292.5,481.6 -282.1,481.6 -282.1,476.4 -292.5,476.4 				"/>
				<polygon id="Fill-31" class="st1" points="-292.5,465.6 -282.1,465.6 -282.1,460.4 -292.5,460.4 				"/>
				<polygon id="Fill-32" class="st1" points="-292.5,449.6 -282.1,449.6 -282.1,444.4 -292.5,444.4 				"/>
				<polygon id="Fill-342" class="st1" points="-292.5,481.6 -282.1,481.6 -282.1,476.4 -292.5,476.4 				"/>
				<polygon id="Fill-343" class="st1" points="-292.5,497.5 -282.1,497.5 -282.1,492.3 -292.5,492.3 				"/>
				<polygon id="Fill-344" class="st1" points="-292.5,513.5 -282.1,513.5 -282.1,508.3 -292.5,508.3 				"/>
			</g>
			<g>
				<polygon id="Fill-33" class="st1" points="-271.8,481.6 -261.4,481.6 -261.4,476.4 -271.8,476.4 				"/>
				<polygon id="Fill-34" class="st1" points="-271.8,465.6 -261.4,465.6 -261.4,460.4 -271.8,460.4 				"/>
				<polygon id="Fill-35" class="st1" points="-271.8,449.6 -261.4,449.6 -261.4,444.4 -271.8,444.4 				"/>
				<polygon id="Fill-36" class="st1" points="-271.8,433.7 -261.4,433.7 -261.4,428.5 -271.8,428.5 				"/>
				<polygon id="Fill-37" class="st1" points="-271.8,417.7 -261.4,417.7 -261.4,412.5 -271.8,412.5 				"/>
				<polygon id="Fill-38" class="st1" points="-271.8,401.7 -261.4,401.7 -261.4,396.5 -271.8,396.5 				"/>
				<polygon id="Fill-39" class="st1" points="-271.8,385.8 -261.4,385.8 -261.4,380.6 -271.8,380.6 				"/>
				<polygon id="Fill-345" class="st1" points="-271.8,481.6 -261.4,481.6 -261.4,476.4 -271.8,476.4 				"/>
				<polygon id="Fill-346" class="st1" points="-271.8,497.5 -261.4,497.5 -261.4,492.3 -271.8,492.3 				"/>
				<polygon id="Fill-347" class="st1" points="-271.8,513.5 -261.4,513.5 -261.4,508.3 -271.8,508.3 				"/>
				<polygon id="Fill-348" class="st1" points="-271.8,529.5 -261.4,529.5 -261.4,524.3 -271.8,524.3 				"/>
				<polygon id="Fill-349" class="st1" points="-271.8,545.4 -261.4,545.4 -261.4,540.3 -271.8,540.3 				"/>
				<polygon id="Fill-350" class="st1" points="-271.8,561.4 -261.4,561.4 -261.4,556.2 -271.8,556.2 				"/>
				<polygon id="Fill-351" class="st1" points="-271.8,577.4 -261.4,577.4 -261.4,572.2 -271.8,572.2 				"/>
			</g>
			<g>
				<polygon id="Fill-40" class="st1" points="-251.1,481.6 -240.7,481.6 -240.7,476.4 -251.1,476.4 				"/>
				<polygon id="Fill-41" class="st1" points="-251.1,465.6 -240.7,465.6 -240.7,460.4 -251.1,460.4 				"/>
				<polygon id="Fill-42" class="st1" points="-251.1,449.6 -240.7,449.6 -240.7,444.4 -251.1,444.4 				"/>
				<polygon id="Fill-43" class="st1" points="-251.1,433.7 -240.7,433.7 -240.7,428.5 -251.1,428.5 				"/>
				<polygon id="Fill-352" class="st1" points="-251.1,481.6 -240.7,481.6 -240.7,476.4 -251.1,476.4 				"/>
				<polygon id="Fill-353" class="st1" points="-251.1,497.5 -240.7,497.5 -240.7,492.3 -251.1,492.3 				"/>
				<polygon id="Fill-354" class="st1" points="-251.1,513.5 -240.7,513.5 -240.7,508.3 -251.1,508.3 				"/>
				<polygon id="Fill-355" class="st1" points="-251.1,529.5 -240.7,529.5 -240.7,524.3 -251.1,524.3 				"/>
			</g>
			<g>
				<polygon id="Fill-44" class="st1" points="-230.4,481.6 -220.1,481.6 -220.1,476.4 -230.4,476.4 				"/>
				<polygon id="Fill-45" class="st1" points="-230.4,465.6 -220.1,465.6 -220.1,460.4 -230.4,460.4 				"/>
				<polygon id="Fill-356" class="st1" points="-230.4,481.6 -220.1,481.6 -220.1,476.4 -230.4,476.4 				"/>
				<polygon id="Fill-357" class="st1" points="-230.4,497.5 -220.1,497.5 -220.1,492.3 -230.4,492.3 				"/>
			</g>
			<g>
				<polygon id="Fill-46" class="st1" points="-209.7,481.6 -199.4,481.6 -199.4,476.4 -209.7,476.4 				"/>
				<polygon id="Fill-47" class="st1" points="-209.7,465.6 -199.4,465.6 -199.4,460.4 -209.7,460.4 				"/>
				<polygon id="Fill-48" class="st1" points="-209.7,449.6 -199.4,449.6 -199.4,444.4 -209.7,444.4 				"/>
				<polygon id="Fill-49" class="st1" points="-209.7,433.7 -199.4,433.7 -199.4,428.5 -209.7,428.5 				"/>
				<polygon id="Fill-358" class="st1" points="-209.7,481.6 -199.4,481.6 -199.4,476.4 -209.7,476.4 				"/>
				<polygon id="Fill-359" class="st1" points="-209.7,497.5 -199.4,497.5 -199.4,492.3 -209.7,492.3 				"/>
				<polygon id="Fill-360" class="st1" points="-209.7,513.5 -199.4,513.5 -199.4,508.3 -209.7,508.3 				"/>
				<polygon id="Fill-361" class="st1" points="-209.7,529.5 -199.4,529.5 -199.4,524.3 -209.7,524.3 				"/>
			</g>
			<g>
				<polygon id="Fill-50" class="st1" points="-189,481.6 -178.7,481.6 -178.7,476.4 -189,476.4 				"/>
				<polygon id="Fill-51" class="st1" points="-189,465.6 -178.7,465.6 -178.7,460.4 -189,460.4 				"/>
				<polygon id="Fill-52" class="st1" points="-189,449.6 -178.7,449.6 -178.7,444.4 -189,444.4 				"/>
				<polygon id="Fill-53" class="st1" points="-189,433.7 -178.7,433.7 -178.7,428.5 -189,428.5 				"/>
				<polygon id="Fill-54" class="st1" points="-189,417.7 -178.7,417.7 -178.7,412.5 -189,412.5 				"/>
				<polygon id="Fill-55" class="st1" points="-189,401.7 -178.7,401.7 -178.7,396.5 -189,396.5 				"/>
				<polygon id="Fill-56" class="st1" points="-189,385.8 -178.7,385.8 -178.7,380.6 -189,380.6 				"/>
				<polygon id="Fill-362" class="st1" points="-189,481.6 -178.7,481.6 -178.7,476.4 -189,476.4 				"/>
				<polygon id="Fill-363" class="st1" points="-189,497.5 -178.7,497.5 -178.7,492.3 -189,492.3 				"/>
				<polygon id="Fill-364" class="st1" points="-189,513.5 -178.7,513.5 -178.7,508.3 -189,508.3 				"/>
				<polygon id="Fill-365" class="st1" points="-189,529.5 -178.7,529.5 -178.7,524.3 -189,524.3 				"/>
				<polygon id="Fill-366" class="st1" points="-189,545.4 -178.7,545.4 -178.7,540.3 -189,540.3 				"/>
				<polygon id="Fill-367" class="st1" points="-189,561.4 -178.7,561.4 -178.7,556.2 -189,556.2 				"/>
				<polygon id="Fill-368" class="st1" points="-189,577.4 -178.7,577.4 -178.7,572.2 -189,572.2 				"/>
			</g>
			<g>
				<polygon id="Fill-57" class="st1" points="-168.4,481.6 -158,481.6 -158,476.4 -168.4,476.4 				"/>
				<polygon id="Fill-58" class="st1" points="-168.4,465.6 -158,465.6 -158,460.4 -168.4,460.4 				"/>
				<polygon id="Fill-59" class="st1" points="-168.4,449.6 -158,449.6 -158,444.4 -168.4,444.4 				"/>
				<polygon id="Fill-60" class="st1" points="-168.4,433.7 -158,433.7 -158,428.5 -168.4,428.5 				"/>
				<polygon id="Fill-61" class="st1" points="-168.4,417.7 -158,417.7 -158,412.5 -168.4,412.5 				"/>
				<polygon id="Fill-369" class="st1" points="-168.4,481.6 -158,481.6 -158,476.4 -168.4,476.4 				"/>
				<polygon id="Fill-370" class="st1" points="-168.4,497.5 -158,497.5 -158,492.3 -168.4,492.3 				"/>
				<polygon id="Fill-371" class="st1" points="-168.4,513.5 -158,513.5 -158,508.3 -168.4,508.3 				"/>
				<polygon id="Fill-372" class="st1" points="-168.4,529.5 -158,529.5 -158,524.3 -168.4,524.3 				"/>
				<polygon id="Fill-373" class="st1" points="-168.4,545.4 -158,545.4 -158,540.3 -168.4,540.3 				"/>
			</g>
			<g>
				<polygon id="Fill-62" class="st1" points="-147.7,481.6 -137.3,481.6 -137.3,476.4 -147.7,476.4 				"/>
				<polygon id="Fill-63" class="st1" points="-147.7,465.6 -137.3,465.6 -137.3,460.4 -147.7,460.4 				"/>
				<polygon id="Fill-374" class="st1" points="-147.7,481.6 -137.3,481.6 -137.3,476.4 -147.7,476.4 				"/>
				<polygon id="Fill-375" class="st1" points="-147.7,497.5 -137.3,497.5 -137.3,492.3 -147.7,492.3 				"/>
			</g>
			<g>
				<polygon id="Fill-64" class="st1" points="-127,481.6 -116.6,481.6 -116.6,476.4 -127,476.4 				"/>
				<polygon id="Fill-65" class="st1" points="-127,465.6 -116.6,465.6 -116.6,460.4 -127,460.4 				"/>
				<polygon id="Fill-66" class="st1" points="-127,449.6 -116.6,449.6 -116.6,444.4 -127,444.4 				"/>
				<polygon id="Fill-376" class="st1" points="-127,481.6 -116.6,481.6 -116.6,476.4 -127,476.4 				"/>
				<polygon id="Fill-377" class="st1" points="-127,497.5 -116.6,497.5 -116.6,492.3 -127,492.3 				"/>
				<polygon id="Fill-378" class="st1" points="-127,513.5 -116.6,513.5 -116.6,508.3 -127,508.3 				"/>
			</g>
			<g>
				<polygon id="Fill-67" class="st1" points="-106.3,481.6 -96,481.6 -96,476.4 -106.3,476.4 				"/>
				<polygon id="Fill-68" class="st1" points="-106.3,465.6 -96,465.6 -96,460.4 -106.3,460.4 				"/>
				<polygon id="Fill-69" class="st1" points="-106.3,449.6 -96,449.6 -96,444.4 -106.3,444.4 				"/>
				<polygon id="Fill-70" class="st1" points="-106.3,433.7 -96,433.7 -96,428.5 -106.3,428.5 				"/>
				<polygon id="Fill-71" class="st1" points="-106.3,417.7 -96,417.7 -96,412.5 -106.3,412.5 				"/>
				<polygon id="Fill-379" class="st1" points="-106.3,481.6 -96,481.6 -96,476.4 -106.3,476.4 				"/>
				<polygon id="Fill-380" class="st1" points="-106.3,497.5 -96,497.5 -96,492.3 -106.3,492.3 				"/>
				<polygon id="Fill-381" class="st1" points="-106.3,513.5 -96,513.5 -96,508.3 -106.3,508.3 				"/>
				<polygon id="Fill-382" class="st1" points="-106.3,529.5 -96,529.5 -96,524.3 -106.3,524.3 				"/>
				<polygon id="Fill-383" class="st1" points="-106.3,545.4 -96,545.4 -96,540.3 -106.3,540.3 				"/>
				<g>
					<polygon id="Fill-72" class="st1" points="-85.6,481.6 -75.3,481.6 -75.3,476.4 -85.6,476.4 					"/>
					<polygon id="Fill-384" class="st1" points="-85.6,481.6 -75.3,481.6 -75.3,476.4 -85.6,476.4 					"/>
				</g>
			</g>
			<g>
				<polygon id="Fill-73" class="st1" points="-65,481.6 -54.6,481.6 -54.6,476.4 -65,476.4 				"/>
				<polygon id="Fill-74" class="st1" points="-65,465.6 -54.6,465.6 -54.6,460.4 -65,460.4 				"/>
				<polygon id="Fill-75" class="st1" points="-65,449.6 -54.6,449.6 -54.6,444.4 -65,444.4 				"/>
				<polygon id="Fill-385" class="st1" points="-65,481.6 -54.6,481.6 -54.6,476.4 -65,476.4 				"/>
				<polygon id="Fill-386" class="st1" points="-65,497.5 -54.6,497.5 -54.6,492.3 -65,492.3 				"/>
				<polygon id="Fill-387" class="st1" points="-65,513.5 -54.6,513.5 -54.6,508.3 -65,508.3 				"/>
			</g>
			<g>
				<polygon id="Fill-76" class="st1" points="-44.3,481.6 -33.9,481.6 -33.9,476.4 -44.3,476.4 				"/>
				<polygon id="Fill-77" class="st1" points="-44.3,465.6 -33.9,465.6 -33.9,460.4 -44.3,460.4 				"/>
				<polygon id="Fill-78" class="st1" points="-44.3,449.6 -33.9,449.6 -33.9,444.4 -44.3,444.4 				"/>
				<polygon id="Fill-79" class="st1" points="-44.3,433.7 -33.9,433.7 -33.9,428.5 -44.3,428.5 				"/>
				<polygon id="Fill-80" class="st1" points="-44.3,417.7 -33.9,417.7 -33.9,412.5 -44.3,412.5 				"/>
				<polygon id="Fill-388" class="st1" points="-44.3,481.6 -33.9,481.6 -33.9,476.4 -44.3,476.4 				"/>
				<polygon id="Fill-389" class="st1" points="-44.3,497.5 -33.9,497.5 -33.9,492.3 -44.3,492.3 				"/>
				<polygon id="Fill-390" class="st1" points="-44.3,513.5 -33.9,513.5 -33.9,508.3 -44.3,508.3 				"/>
				<polygon id="Fill-391" class="st1" points="-44.3,529.5 -33.9,529.5 -33.9,524.3 -44.3,524.3 				"/>
				<polygon id="Fill-392" class="st1" points="-44.3,545.4 -33.9,545.4 -33.9,540.3 -44.3,540.3 				"/>
			</g>
			<g>
				<polygon id="Fill-81" class="st1" points="-23.6,481.6 -13.2,481.6 -13.2,476.4 -23.6,476.4 				"/>
				<polygon id="Fill-82" class="st1" points="-23.6,465.6 -13.2,465.6 -13.2,460.4 -23.6,460.4 				"/>
				<polygon id="Fill-83" class="st1" points="-23.6,449.6 -13.2,449.6 -13.2,444.4 -23.6,444.4 				"/>
				<polygon id="Fill-84" class="st1" points="-23.6,433.7 -13.2,433.7 -13.2,428.5 -23.6,428.5 				"/>
				<polygon id="Fill-85" class="st1" points="-23.6,417.7 -13.2,417.7 -13.2,412.5 -23.6,412.5 				"/>
				<polygon id="Fill-86" class="st1" points="-23.6,401.7 -13.2,401.7 -13.2,396.5 -23.6,396.5 				"/>
				<polygon id="Fill-87" class="st1" points="-23.6,385.8 -13.2,385.8 -13.2,380.6 -23.6,380.6 				"/>
				<polygon id="Fill-88" class="st1" points="-23.6,369.8 -13.2,369.8 -13.2,364.6 -23.6,364.6 				"/>
				<polygon id="Fill-89" class="st1" points="-23.6,353.8 -13.2,353.8 -13.2,348.6 -23.6,348.6 				"/>
				<polygon id="Fill-393" class="st1" points="-23.6,481.6 -13.2,481.6 -13.2,476.4 -23.6,476.4 				"/>
				<polygon id="Fill-394" class="st1" points="-23.6,497.5 -13.2,497.5 -13.2,492.3 -23.6,492.3 				"/>
				<polygon id="Fill-395" class="st1" points="-23.6,513.5 -13.2,513.5 -13.2,508.3 -23.6,508.3 				"/>
				<polygon id="Fill-396" class="st1" points="-23.6,529.5 -13.2,529.5 -13.2,524.3 -23.6,524.3 				"/>
				<polygon id="Fill-397" class="st1" points="-23.6,545.4 -13.2,545.4 -13.2,540.3 -23.6,540.3 				"/>
				<polygon id="Fill-398" class="st1" points="-23.6,561.4 -13.2,561.4 -13.2,556.2 -23.6,556.2 				"/>
				<polygon id="Fill-399" class="st1" points="-23.6,577.4 -13.2,577.4 -13.2,572.2 -23.6,572.2 				"/>
				<polygon id="Fill-400" class="st1" points="-23.6,593.4 -13.2,593.4 -13.2,588.2 -23.6,588.2 				"/>
				<polygon id="Fill-401" class="st1" points="-23.6,609.3 -13.2,609.3 -13.2,604.1 -23.6,604.1 				"/>
			</g>
			<g>
				<polygon id="Fill-90" class="st1" points="-2.9,481.6 7.5,481.6 7.5,476.4 -2.9,476.4 				"/>
				<polygon id="Fill-91" class="st1" points="-2.9,465.6 7.5,465.6 7.5,460.4 -2.9,460.4 				"/>
				<polygon id="Fill-92" class="st1" points="-2.9,449.6 7.5,449.6 7.5,444.4 -2.9,444.4 				"/>
				<polygon id="Fill-93" class="st1" points="-2.9,433.7 7.5,433.7 7.5,428.5 -2.9,428.5 				"/>
				<polygon id="Fill-94" class="st1" points="-2.9,417.7 7.5,417.7 7.5,412.5 -2.9,412.5 				"/>
				<polygon id="Fill-95" class="st1" points="-2.9,401.7 7.5,401.7 7.5,396.5 -2.9,396.5 				"/>
				<polygon id="Fill-96" class="st1" points="-2.9,385.8 7.5,385.8 7.5,380.6 -2.9,380.6 				"/>
				<polygon id="Fill-402" class="st1" points="-2.9,481.6 7.5,481.6 7.5,476.4 -2.9,476.4 				"/>
				<polygon id="Fill-403" class="st1" points="-2.9,497.5 7.5,497.5 7.5,492.3 -2.9,492.3 				"/>
				<polygon id="Fill-404" class="st1" points="-2.9,513.5 7.5,513.5 7.5,508.3 -2.9,508.3 				"/>
				<polygon id="Fill-405" class="st1" points="-2.9,529.5 7.5,529.5 7.5,524.3 -2.9,524.3 				"/>
				<polygon id="Fill-406" class="st1" points="-2.9,545.4 7.5,545.4 7.5,540.3 -2.9,540.3 				"/>
				<polygon id="Fill-407" class="st1" points="-2.9,561.4 7.5,561.4 7.5,556.2 -2.9,556.2 				"/>
				<polygon id="Fill-408" class="st1" points="-2.9,577.4 7.5,577.4 7.5,572.2 -2.9,572.2 				"/>
			</g>
			<g>
				<polygon id="Fill-97" class="st1" points="17.8,481.6 28.1,481.6 28.1,476.4 17.8,476.4 				"/>
				<polygon id="Fill-98" class="st1" points="17.8,465.6 28.1,465.6 28.1,460.4 17.8,460.4 				"/>
				<polygon id="Fill-99" class="st1" points="17.8,449.6 28.1,449.6 28.1,444.4 17.8,444.4 				"/>
				<polygon id="Fill-100" class="st1" points="17.8,433.7 28.1,433.7 28.1,428.5 17.8,428.5 				"/>
				<polygon id="Fill-409" class="st1" points="17.8,481.6 28.1,481.6 28.1,476.4 17.8,476.4 				"/>
				<polygon id="Fill-410" class="st1" points="17.8,497.5 28.1,497.5 28.1,492.3 17.8,492.3 				"/>
				<polygon id="Fill-411" class="st1" points="17.8,513.5 28.1,513.5 28.1,508.3 17.8,508.3 				"/>
				<polygon id="Fill-412" class="st1" points="17.8,529.5 28.1,529.5 28.1,524.3 17.8,524.3 				"/>
			</g>
			<g>
				<polygon id="Fill-101" class="st1" points="38.5,481.6 48.8,481.6 48.8,476.4 38.5,476.4 				"/>
				<polygon id="Fill-102" class="st1" points="38.5,465.6 48.8,465.6 48.8,460.4 38.5,460.4 				"/>
				<polygon id="Fill-413" class="st1" points="38.5,481.6 48.8,481.6 48.8,476.4 38.5,476.4 				"/>
				<polygon id="Fill-414" class="st1" points="38.5,497.5 48.8,497.5 48.8,492.3 38.5,492.3 				"/>
			</g>
			<g>
				<polygon id="Fill-103" class="st1" points="59.2,481.6 69.5,481.6 69.5,476.4 59.2,476.4 				"/>
				<polygon id="Fill-104" class="st1" points="59.2,465.6 69.5,465.6 69.5,460.4 59.2,460.4 				"/>
				<polygon id="Fill-105" class="st1" points="59.2,449.6 69.5,449.6 69.5,444.4 59.2,444.4 				"/>
				<polygon id="Fill-415" class="st1" points="59.2,481.6 69.5,481.6 69.5,476.4 59.2,476.4 				"/>
				<polygon id="Fill-416" class="st1" points="59.2,497.5 69.5,497.5 69.5,492.3 59.2,492.3 				"/>
				<polygon id="Fill-417" class="st1" points="59.2,513.5 69.5,513.5 69.5,508.3 59.2,508.3 				"/>
			</g>
			<g>
				<polygon id="Fill-106" class="st1" points="79.8,481.6 90.2,481.6 90.2,476.4 79.8,476.4 				"/>
				<polygon id="Fill-107" class="st1" points="79.8,465.6 90.2,465.6 90.2,460.4 79.8,460.4 				"/>
				<polygon id="Fill-108" class="st1" points="79.8,449.6 90.2,449.6 90.2,444.4 79.8,444.4 				"/>
				<polygon id="Fill-109" class="st1" points="79.8,433.7 90.2,433.7 90.2,428.5 79.8,428.5 				"/>
				<polygon id="Fill-110" class="st1" points="79.8,417.7 90.2,417.7 90.2,412.5 79.8,412.5 				"/>
				<polygon id="Fill-418" class="st1" points="79.8,481.6 90.2,481.6 90.2,476.4 79.8,476.4 				"/>
				<polygon id="Fill-419" class="st1" points="79.8,497.5 90.2,497.5 90.2,492.3 79.8,492.3 				"/>
				<polygon id="Fill-420" class="st1" points="79.8,513.5 90.2,513.5 90.2,508.3 79.8,508.3 				"/>
				<polygon id="Fill-421" class="st1" points="79.8,529.5 90.2,529.5 90.2,524.3 79.8,524.3 				"/>
				<polygon id="Fill-422" class="st1" points="79.8,545.4 90.2,545.4 90.2,540.3 79.8,540.3 				"/>
			</g>
			<g>
				<polygon id="Fill-111" class="st1" points="100.5,481.6 110.9,481.6 110.9,476.4 100.5,476.4 				"/>
				<polygon id="Fill-112" class="st1" points="100.5,465.6 110.9,465.6 110.9,460.4 100.5,460.4 				"/>
				<polygon id="Fill-113" class="st1" points="100.5,449.6 110.9,449.6 110.9,444.4 100.5,444.4 				"/>
				<polygon id="Fill-114" class="st1" points="100.5,433.7 110.9,433.7 110.9,428.5 100.5,428.5 				"/>
				<polygon id="Fill-115" class="st1" points="100.5,417.7 110.9,417.7 110.9,412.5 100.5,412.5 				"/>
				<polygon id="Fill-116" class="st1" points="100.5,401.7 110.9,401.7 110.9,396.5 100.5,396.5 				"/>
				<polygon id="Fill-117" class="st1" points="100.5,385.8 110.9,385.8 110.9,380.6 100.5,380.6 				"/>
				<polygon id="Fill-118" class="st1" points="100.5,369.8 110.9,369.8 110.9,364.6 100.5,364.6 				"/>
				<polygon id="Fill-423" class="st1" points="100.5,481.6 110.9,481.6 110.9,476.4 100.5,476.4 				"/>
				<polygon id="Fill-424" class="st1" points="100.5,497.5 110.9,497.5 110.9,492.3 100.5,492.3 				"/>
				<polygon id="Fill-425" class="st1" points="100.5,513.5 110.9,513.5 110.9,508.3 100.5,508.3 				"/>
				<polygon id="Fill-426" class="st1" points="100.5,529.5 110.9,529.5 110.9,524.3 100.5,524.3 				"/>
				<polygon id="Fill-427" class="st1" points="100.5,545.4 110.9,545.4 110.9,540.3 100.5,540.3 				"/>
				<polygon id="Fill-428" class="st1" points="100.5,561.4 110.9,561.4 110.9,556.2 100.5,556.2 				"/>
				<polygon id="Fill-429" class="st1" points="100.5,577.4 110.9,577.4 110.9,572.2 100.5,572.2 				"/>
				<polygon id="Fill-430" class="st1" points="100.5,593.4 110.9,593.4 110.9,588.2 100.5,588.2 				"/>
			</g>
			<g>
				<polygon id="Fill-119" class="st1" points="121.2,481.6 131.5,481.6 131.5,476.4 121.2,476.4 				"/>
				<polygon id="Fill-120" class="st1" points="121.2,465.6 131.5,465.6 131.5,460.4 121.2,460.4 				"/>
				<polygon id="Fill-121" class="st1" points="121.2,449.6 131.5,449.6 131.5,444.4 121.2,444.4 				"/>
				<polygon id="Fill-122" class="st1" points="121.2,433.7 131.5,433.7 131.5,428.5 121.2,428.5 				"/>
				<polygon id="Fill-123" class="st1" points="121.2,417.7 131.5,417.7 131.5,412.5 121.2,412.5 				"/>
				<polygon id="Fill-124" class="st1" points="121.2,401.7 131.5,401.7 131.5,396.5 121.2,396.5 				"/>
				<polygon id="Fill-431" class="st1" points="121.2,481.6 131.5,481.6 131.5,476.4 121.2,476.4 				"/>
				<polygon id="Fill-432" class="st1" points="121.2,497.5 131.5,497.5 131.5,492.3 121.2,492.3 				"/>
				<polygon id="Fill-433" class="st1" points="121.2,513.5 131.5,513.5 131.5,508.3 121.2,508.3 				"/>
				<polygon id="Fill-434" class="st1" points="121.2,529.5 131.5,529.5 131.5,524.3 121.2,524.3 				"/>
				<polygon id="Fill-435" class="st1" points="121.2,545.4 131.5,545.4 131.5,540.3 121.2,540.3 				"/>
				<polygon id="Fill-436" class="st1" points="121.2,561.4 131.5,561.4 131.5,556.2 121.2,556.2 				"/>
			</g>
			<g>
				<polygon id="Fill-125" class="st1" points="141.9,481.6 152.2,481.6 152.2,476.4 141.9,476.4 				"/>
				<polygon id="Fill-126" class="st1" points="141.9,465.6 152.2,465.6 152.2,460.4 141.9,460.4 				"/>
				<polygon id="Fill-127" class="st1" points="141.9,449.6 152.2,449.6 152.2,444.4 141.9,444.4 				"/>
				<polygon id="Fill-128" class="st1" points="141.9,433.7 152.2,433.7 152.2,428.5 141.9,428.5 				"/>
				<polygon id="Fill-437" class="st1" points="141.9,481.6 152.2,481.6 152.2,476.4 141.9,476.4 				"/>
				<polygon id="Fill-438" class="st1" points="141.9,497.5 152.2,497.5 152.2,492.3 141.9,492.3 				"/>
				<polygon id="Fill-439" class="st1" points="141.9,513.5 152.2,513.5 152.2,508.3 141.9,508.3 				"/>
				<polygon id="Fill-440" class="st1" points="141.9,529.5 152.2,529.5 152.2,524.3 141.9,524.3 				"/>
			</g>
			<g>
				<polygon id="Fill-129" class="st1" points="162.6,481.6 172.9,481.6 172.9,476.4 162.6,476.4 				"/>
				<polygon id="Fill-130" class="st1" points="162.6,465.6 172.9,465.6 172.9,460.4 162.6,460.4 				"/>
				<polygon id="Fill-131" class="st1" points="162.6,449.6 172.9,449.6 172.9,444.4 162.6,444.4 				"/>
				<polygon id="Fill-132" class="st1" points="162.6,433.7 172.9,433.7 172.9,428.5 162.6,428.5 				"/>
				<polygon id="Fill-133" class="st1" points="162.6,417.7 172.9,417.7 172.9,412.5 162.6,412.5 				"/>
				<polygon id="Fill-134" class="st1" points="162.6,401.7 172.9,401.7 172.9,396.5 162.6,396.5 				"/>
				<polygon id="Fill-135" class="st1" points="162.6,385.8 172.9,385.8 172.9,380.6 162.6,380.6 				"/>
				<polygon id="Fill-156" class="st1" points="162.6,369.8 172.9,369.8 172.9,364.6 162.6,364.6 				"/>
				<polygon id="Fill-441" class="st1" points="162.6,481.6 172.9,481.6 172.9,476.4 162.6,476.4 				"/>
				<polygon id="Fill-442" class="st1" points="162.6,497.5 172.9,497.5 172.9,492.3 162.6,492.3 				"/>
				<polygon id="Fill-443" class="st1" points="162.6,513.5 172.9,513.5 172.9,508.3 162.6,508.3 				"/>
				<polygon id="Fill-444" class="st1" points="162.6,529.5 172.9,529.5 172.9,524.3 162.6,524.3 				"/>
				<polygon id="Fill-445" class="st1" points="162.6,545.4 172.9,545.4 172.9,540.3 162.6,540.3 				"/>
				<polygon id="Fill-446" class="st1" points="162.6,561.4 172.9,561.4 172.9,556.2 162.6,556.2 				"/>
				<polygon id="Fill-447" class="st1" points="162.6,577.4 172.9,577.4 172.9,572.2 162.6,572.2 				"/>
				<polygon id="Fill-468" class="st1" points="162.6,593.4 172.9,593.4 172.9,588.2 162.6,588.2 				"/>
			</g>
			<g>
				<polygon id="Fill-136" class="st1" points="183.2,481.6 193.6,481.6 193.6,476.4 183.2,476.4 				"/>
				<polygon id="Fill-137" class="st1" points="183.2,465.6 193.6,465.6 193.6,460.4 183.2,460.4 				"/>
				<polygon id="Fill-138" class="st1" points="183.2,449.6 193.6,449.6 193.6,444.4 183.2,444.4 				"/>
				<polygon id="Fill-139" class="st1" points="183.2,433.7 193.6,433.7 193.6,428.5 183.2,428.5 				"/>
				<polygon id="Fill-140" class="st1" points="183.2,417.7 193.6,417.7 193.6,412.5 183.2,412.5 				"/>
				<polygon id="Fill-141" class="st1" points="183.2,401.7 193.6,401.7 193.6,396.5 183.2,396.5 				"/>
				<polygon id="Fill-142" class="st1" points="183.2,385.8 193.6,385.8 193.6,380.6 183.2,380.6 				"/>
				<polygon id="Fill-143" class="st1" points="183.2,369.8 193.6,369.8 193.6,364.6 183.2,364.6 				"/>
				<polygon id="Fill-144" class="st1" points="183.2,353.8 193.6,353.8 193.6,348.6 183.2,348.6 				"/>
				<polygon id="Fill-145" class="st1" points="183.2,337.8 193.6,337.8 193.6,332.7 183.2,332.7 				"/>
				<polygon id="Fill-146" class="st1" points="183.2,321.9 193.6,321.9 193.6,316.7 183.2,316.7 				"/>
				<polygon id="Fill-147" class="st1" points="183.2,305.9 193.6,305.9 193.6,300.7 183.2,300.7 				"/>
				<polygon id="Fill-157" class="st1" points="183.2,290 193.6,290 193.6,284.8 183.2,284.8 				"/>
				<polygon id="Fill-448" class="st1" points="183.2,481.6 193.6,481.6 193.6,476.4 183.2,476.4 				"/>
				<polygon id="Fill-449" class="st1" points="183.2,497.5 193.6,497.5 193.6,492.3 183.2,492.3 				"/>
				<polygon id="Fill-450" class="st1" points="183.2,513.5 193.6,513.5 193.6,508.3 183.2,508.3 				"/>
				<polygon id="Fill-451" class="st1" points="183.2,529.5 193.6,529.5 193.6,524.3 183.2,524.3 				"/>
				<polygon id="Fill-452" class="st1" points="183.2,545.4 193.6,545.4 193.6,540.3 183.2,540.3 				"/>
				<polygon id="Fill-453" class="st1" points="183.2,561.4 193.6,561.4 193.6,556.2 183.2,556.2 				"/>
				<polygon id="Fill-454" class="st1" points="183.2,577.4 193.6,577.4 193.6,572.2 183.2,572.2 				"/>
				<polygon id="Fill-455" class="st1" points="183.2,593.4 193.6,593.4 193.6,588.2 183.2,588.2 				"/>
				<polygon id="Fill-456" class="st1" points="183.2,609.3 193.6,609.3 193.6,604.1 183.2,604.1 				"/>
				<polygon id="Fill-457" class="st1" points="183.2,625.3 193.6,625.3 193.6,620.1 183.2,620.1 				"/>
				<polygon id="Fill-458" class="st1" points="183.2,641.3 193.6,641.3 193.6,636.1 183.2,636.1 				"/>
				<polygon id="Fill-459" class="st1" points="183.2,657.2 193.6,657.2 193.6,652 183.2,652 				"/>
				<polygon id="Fill-469" class="st1" points="183.2,673.2 193.6,673.2 193.6,668 183.2,668 				"/>
			</g>
			<g>
				<polygon id="Fill-148" class="st1" points="203.9,481.6 214.3,481.6 214.3,476.4 203.9,476.4 				"/>
				<polygon id="Fill-149" class="st1" points="203.9,465.6 214.3,465.6 214.3,460.4 203.9,460.4 				"/>
				<polygon id="Fill-150" class="st1" points="203.9,449.6 214.3,449.6 214.3,444.4 203.9,444.4 				"/>
				<polygon id="Fill-151" class="st1" points="203.9,433.7 214.3,433.7 214.3,428.5 203.9,428.5 				"/>
				<polygon id="Fill-152" class="st1" points="203.9,417.7 214.3,417.7 214.3,412.5 203.9,412.5 				"/>
				<polygon id="Fill-153" class="st1" points="203.9,401.7 214.3,401.7 214.3,396.5 203.9,396.5 				"/>
				<polygon id="Fill-154" class="st1" points="203.9,385.8 214.3,385.8 214.3,380.6 203.9,380.6 				"/>
				<polygon id="Fill-155" class="st1" points="203.9,369.8 214.3,369.8 214.3,364.6 203.9,364.6 				"/>
				<polygon id="Fill-158" class="st1" points="203.9,353.8 214.3,353.8 214.3,348.6 203.9,348.6 				"/>
				<polygon id="Fill-159" class="st1" points="203.9,337.8 214.3,337.8 214.3,332.7 203.9,332.7 				"/>
				<polygon id="Fill-460" class="st1" points="203.9,481.6 214.3,481.6 214.3,476.4 203.9,476.4 				"/>
				<polygon id="Fill-461" class="st1" points="203.9,497.5 214.3,497.5 214.3,492.3 203.9,492.3 				"/>
				<polygon id="Fill-462" class="st1" points="203.9,513.5 214.3,513.5 214.3,508.3 203.9,508.3 				"/>
				<polygon id="Fill-463" class="st1" points="203.9,529.5 214.3,529.5 214.3,524.3 203.9,524.3 				"/>
				<polygon id="Fill-464" class="st1" points="203.9,545.4 214.3,545.4 214.3,540.3 203.9,540.3 				"/>
				<polygon id="Fill-465" class="st1" points="203.9,561.4 214.3,561.4 214.3,556.2 203.9,556.2 				"/>
				<polygon id="Fill-466" class="st1" points="203.9,577.4 214.3,577.4 214.3,572.2 203.9,572.2 				"/>
				<polygon id="Fill-467" class="st1" points="203.9,593.4 214.3,593.4 214.3,588.2 203.9,588.2 				"/>
				<polygon id="Fill-470" class="st1" points="203.9,609.3 214.3,609.3 214.3,604.1 203.9,604.1 				"/>
				<polygon id="Fill-471" class="st1" points="203.9,625.3 214.3,625.3 214.3,620.1 203.9,620.1 				"/>
			</g>
			<g>
				<polygon id="Fill-160" class="st1" points="224.6,481.6 235,481.6 235,476.4 224.6,476.4 				"/>
				<polygon id="Fill-161" class="st1" points="224.6,465.6 235,465.6 235,460.4 224.6,460.4 				"/>
				<polygon id="Fill-162" class="st1" points="224.6,449.6 235,449.6 235,444.4 224.6,444.4 				"/>
				<polygon id="Fill-163" class="st1" points="224.6,433.7 235,433.7 235,428.5 224.6,428.5 				"/>
				<polygon id="Fill-164" class="st1" points="224.6,417.7 235,417.7 235,412.5 224.6,412.5 				"/>
				<polygon id="Fill-472" class="st1" points="224.6,481.6 235,481.6 235,476.4 224.6,476.4 				"/>
				<polygon id="Fill-473" class="st1" points="224.6,497.5 235,497.5 235,492.3 224.6,492.3 				"/>
				<polygon id="Fill-474" class="st1" points="224.6,513.5 235,513.5 235,508.3 224.6,508.3 				"/>
				<polygon id="Fill-475" class="st1" points="224.6,529.5 235,529.5 235,524.3 224.6,524.3 				"/>
				<polygon id="Fill-476" class="st1" points="224.6,545.4 235,545.4 235,540.3 224.6,540.3 				"/>
			</g>
			<g>
				<polygon id="Fill-165" class="st1" points="245.3,481.6 255.6,481.6 255.6,476.4 245.3,476.4 				"/>
				<polygon id="Fill-166" class="st1" points="245.3,465.6 255.6,465.6 255.6,460.4 245.3,460.4 				"/>
				<polygon id="Fill-167" class="st1" points="245.3,449.6 255.6,449.6 255.6,444.4 245.3,444.4 				"/>
				<polygon id="Fill-477" class="st1" points="245.3,481.6 255.6,481.6 255.6,476.4 245.3,476.4 				"/>
				<polygon id="Fill-478" class="st1" points="245.3,497.5 255.6,497.5 255.6,492.3 245.3,492.3 				"/>
				<polygon id="Fill-479" class="st1" points="245.3,513.5 255.6,513.5 255.6,508.3 245.3,508.3 				"/>
			</g>
			<g>
				<polygon id="Fill-168" class="st1" points="266,481.6 276.3,481.6 276.3,476.4 266,476.4 				"/>
				<polygon id="Fill-169" class="st1" points="266,465.6 276.3,465.6 276.3,460.4 266,460.4 				"/>
				<polygon id="Fill-170" class="st1" points="266,449.6 276.3,449.6 276.3,444.4 266,444.4 				"/>
				<polygon id="Fill-171" class="st1" points="266,433.7 276.3,433.7 276.3,428.5 266,428.5 				"/>
				<polygon id="Fill-480" class="st1" points="266,481.6 276.3,481.6 276.3,476.4 266,476.4 				"/>
				<polygon id="Fill-481" class="st1" points="266,497.5 276.3,497.5 276.3,492.3 266,492.3 				"/>
				<polygon id="Fill-482" class="st1" points="266,513.5 276.3,513.5 276.3,508.3 266,508.3 				"/>
				<polygon id="Fill-483" class="st1" points="266,529.5 276.3,529.5 276.3,524.3 266,524.3 				"/>
			</g>
			<g>
				<polygon id="Fill-172" class="st1" points="286.6,481.6 297,481.6 297,476.4 286.6,476.4 				"/>
				<polygon id="Fill-173" class="st1" points="286.6,465.6 297,465.6 297,460.4 286.6,460.4 				"/>
				<polygon id="Fill-174" class="st1" points="286.6,449.6 297,449.6 297,444.4 286.6,444.4 				"/>
				<polygon id="Fill-175" class="st1" points="286.6,433.7 297,433.7 297,428.5 286.6,428.5 				"/>
				<polygon id="Fill-176" class="st1" points="286.6,417.7 297,417.7 297,412.5 286.6,412.5 				"/>
				<polygon id="Fill-177" class="st1" points="286.6,404.3 297,404.3 297,399.1 286.6,399.1 				"/>
				<polygon id="Fill-484" class="st1" points="286.6,481.6 297,481.6 297,476.4 286.6,476.4 				"/>
				<polygon id="Fill-485" class="st1" points="286.6,497.5 297,497.5 297,492.3 286.6,492.3 				"/>
				<polygon id="Fill-486" class="st1" points="286.6,513.5 297,513.5 297,508.3 286.6,508.3 				"/>
				<polygon id="Fill-487" class="st1" points="286.6,529.5 297,529.5 297,524.3 286.6,524.3 				"/>
				<polygon id="Fill-488" class="st1" points="286.6,545.4 297,545.4 297,540.3 286.6,540.3 				"/>
				<polygon id="Fill-489" class="st1" points="286.6,558.8 297,558.8 297,553.6 286.6,553.6 				"/>
			</g>
			<g>
				<polygon id="Fill-178" class="st1" points="307.3,481.6 317.7,481.6 317.7,476.4 307.3,476.4 				"/>
				<polygon id="Fill-179" class="st1" points="307.3,465.6 317.7,465.6 317.7,460.4 307.3,460.4 				"/>
				<polygon id="Fill-490" class="st1" points="307.3,481.6 317.7,481.6 317.7,476.4 307.3,476.4 				"/>
				<polygon id="Fill-491" class="st1" points="307.3,497.5 317.7,497.5 317.7,492.3 307.3,492.3 				"/>
			</g>
			<g>
				<polygon id="Fill-180" class="st1" points="328,481.6 338.4,481.6 338.4,476.4 328,476.4 				"/>
				<polygon id="Fill-492" class="st1" points="328,481.6 338.4,481.6 338.4,476.4 328,476.4 				"/>
				<polygon id="Fill-493" class="st1" points="328,497.5 338.4,497.5 338.4,492.3 328,492.3 				"/>
				<polygon id="Fill-494" class="st1" points="328,513.5 338.4,513.5 338.4,508.3 328,508.3 				"/>
				<polygon id="Fill-495" class="st1" points="328,465.6 338.4,465.6 338.4,460.4 328,460.4 				"/>
				<polygon id="Fill-496" class="st1" points="328,449.6 338.4,449.6 338.4,444.4 328,444.4 				"/>
			</g>
			<g>
				<polygon id="Fill-181" class="st1" points="348.7,481.6 359,481.6 359,476.4 348.7,476.4 				"/>
				<polygon id="Fill-182" class="st1" points="348.7,465.6 359,465.6 359,460.4 348.7,460.4 				"/>
				<polygon id="Fill-497" class="st1" points="348.7,481.6 359,481.6 359,476.4 348.7,476.4 				"/>
				<polygon id="Fill-498" class="st1" points="348.7,497.5 359,497.5 359,492.3 348.7,492.3 				"/>
			</g>
			<g>
				<polygon id="Fill-183" class="st1" points="369.4,481.6 379.7,481.6 379.7,476.4 369.4,476.4 				"/>
				<polygon id="Fill-184" class="st1" points="369.4,465.6 379.7,465.6 379.7,460.4 369.4,460.4 				"/>
				<polygon id="Fill-185" class="st1" points="369.4,449.6 379.7,449.6 379.7,444.4 369.4,444.4 				"/>
				<polygon id="Fill-186" class="st1" points="369.4,433.7 379.7,433.7 379.7,428.5 369.4,428.5 				"/>
				<polygon id="Fill-187" class="st1" points="369.4,417.7 379.7,417.7 379.7,412.5 369.4,412.5 				"/>
				<polygon id="Fill-499" class="st1" points="369.4,481.6 379.7,481.6 379.7,476.4 369.4,476.4 				"/>
				<polygon id="Fill-500" class="st1" points="369.4,497.5 379.7,497.5 379.7,492.3 369.4,492.3 				"/>
				<polygon id="Fill-501" class="st1" points="369.4,513.5 379.7,513.5 379.7,508.3 369.4,508.3 				"/>
				<polygon id="Fill-502" class="st1" points="369.4,529.5 379.7,529.5 379.7,524.3 369.4,524.3 				"/>
				<polygon id="Fill-503" class="st1" points="369.4,545.4 379.7,545.4 379.7,540.3 369.4,540.3 				"/>
			</g>
			<g>
				<polygon id="Fill-188" class="st1" points="390.1,481.6 400.4,481.6 400.4,476.4 390.1,476.4 				"/>
				<polygon id="Fill-189" class="st1" points="390.1,465.6 400.4,465.6 400.4,460.4 390.1,460.4 				"/>
				<polygon id="Fill-190" class="st1" points="390.1,449.6 400.4,449.6 400.4,444.4 390.1,444.4 				"/>
				<polygon id="Fill-191" class="st1" points="390.1,433.7 400.4,433.7 400.4,428.5 390.1,428.5 				"/>
				<polygon id="Fill-192" class="st1" points="390.1,417.7 400.4,417.7 400.4,412.5 390.1,412.5 				"/>
				<polygon id="Fill-193" class="st1" points="390.1,401.7 400.4,401.7 400.4,396.5 390.1,396.5 				"/>
				<polygon id="Fill-194" class="st1" points="390.1,385.8 400.4,385.8 400.4,380.6 390.1,380.6 				"/>
				<polygon id="Fill-195" class="st1" points="390.1,369.8 400.4,369.8 400.4,364.6 390.1,364.6 				"/>
				<polygon id="Fill-196" class="st1" points="390.1,353.8 400.4,353.8 400.4,348.6 390.1,348.6 				"/>
				<polygon id="Fill-504" class="st1" points="390.1,481.6 400.4,481.6 400.4,476.4 390.1,476.4 				"/>
				<polygon id="Fill-505" class="st1" points="390.1,497.5 400.4,497.5 400.4,492.3 390.1,492.3 				"/>
				<polygon id="Fill-506" class="st1" points="390.1,513.5 400.4,513.5 400.4,508.3 390.1,508.3 				"/>
				<polygon id="Fill-507" class="st1" points="390.1,529.5 400.4,529.5 400.4,524.3 390.1,524.3 				"/>
				<polygon id="Fill-508" class="st1" points="390.1,545.4 400.4,545.4 400.4,540.3 390.1,540.3 				"/>
				<polygon id="Fill-509" class="st1" points="390.1,561.4 400.4,561.4 400.4,556.2 390.1,556.2 				"/>
				<polygon id="Fill-510" class="st1" points="390.1,577.4 400.4,577.4 400.4,572.2 390.1,572.2 				"/>
				<polygon id="Fill-511" class="st1" points="390.1,593.4 400.4,593.4 400.4,588.2 390.1,588.2 				"/>
				<polygon id="Fill-512" class="st1" points="390.1,609.3 400.4,609.3 400.4,604.1 390.1,604.1 				"/>
			</g>
			<g>
				<polygon id="Fill-197" class="st1" points="410.7,481.6 421.1,481.6 421.1,476.4 410.7,476.4 				"/>
				<polygon id="Fill-198" class="st1" points="410.7,465.6 421.1,465.6 421.1,460.4 410.7,460.4 				"/>
				<polygon id="Fill-199" class="st1" points="410.7,449.6 421.1,449.6 421.1,444.4 410.7,444.4 				"/>
				<polygon id="Fill-200" class="st1" points="410.7,433.7 421.1,433.7 421.1,428.5 410.7,428.5 				"/>
				<polygon id="Fill-513" class="st1" points="410.7,481.6 421.1,481.6 421.1,476.4 410.7,476.4 				"/>
				<polygon id="Fill-514" class="st1" points="410.7,497.5 421.1,497.5 421.1,492.3 410.7,492.3 				"/>
				<polygon id="Fill-515" class="st1" points="410.7,513.5 421.1,513.5 421.1,508.3 410.7,508.3 				"/>
				<polygon id="Fill-516" class="st1" points="410.7,529.5 421.1,529.5 421.1,524.3 410.7,524.3 				"/>
			</g>
			<g>
				<polygon id="Fill-201" class="st1" points="431.4,481.6 441.8,481.6 441.8,476.4 431.4,476.4 				"/>
				<polygon id="Fill-202" class="st1" points="431.4,465.6 441.8,465.6 441.8,460.4 431.4,460.4 				"/>
				<polygon id="Fill-203" class="st1" points="431.4,449.6 441.8,449.6 441.8,444.4 431.4,444.4 				"/>
				<polygon id="Fill-204" class="st1" points="431.4,433.7 441.8,433.7 441.8,428.5 431.4,428.5 				"/>
				<polygon id="Fill-205" class="st1" points="431.4,417.7 441.8,417.7 441.8,412.5 431.4,412.5 				"/>
				<polygon id="Fill-206" class="st1" points="431.4,401.7 441.8,401.7 441.8,396.5 431.4,396.5 				"/>
				<polygon id="Fill-517" class="st1" points="431.4,481.6 441.8,481.6 441.8,476.4 431.4,476.4 				"/>
				<polygon id="Fill-518" class="st1" points="431.4,497.5 441.8,497.5 441.8,492.3 431.4,492.3 				"/>
				<polygon id="Fill-519" class="st1" points="431.4,513.5 441.8,513.5 441.8,508.3 431.4,508.3 				"/>
				<polygon id="Fill-520" class="st1" points="431.4,529.5 441.8,529.5 441.8,524.3 431.4,524.3 				"/>
				<polygon id="Fill-521" class="st1" points="431.4,545.4 441.8,545.4 441.8,540.3 431.4,540.3 				"/>
				<polygon id="Fill-522" class="st1" points="431.4,561.4 441.8,561.4 441.8,556.2 431.4,556.2 				"/>
			</g>
			<polygon id="Fill-523" class="st1" points="452.1,481.6 462.5,481.6 462.5,476.4 452.1,476.4 			"/>
			<polygon id="Fill-524" class="st1" points="452.1,497.5 462.5,497.5 462.5,492.3 452.1,492.3 			"/>
			<polygon id="Fill-525" class="st1" points="452.1,513.5 462.5,513.5 462.5,508.3 452.1,508.3 			"/>
			<g>
				<g>
					<polygon id="Fill-210" class="st1" points="472.8,481.6 483.1,481.6 483.1,476.4 472.8,476.4 					"/>
					<polygon id="Fill-526" class="st1" points="472.8,481.6 483.1,481.6 483.1,476.4 472.8,476.4 					"/>
				</g>
				<polygon id="Fill-211" class="st1" points="493.5,481.6 503.8,481.6 503.8,476.4 493.5,476.4 				"/>
				<polygon id="Fill-212" class="st1" points="493.5,465.6 503.8,465.6 503.8,460.4 493.5,460.4 				"/>
				<polygon id="Fill-527" class="st1" points="493.5,481.6 503.8,481.6 503.8,476.4 493.5,476.4 				"/>
				<polygon id="Fill-528" class="st1" points="493.5,497.5 503.8,497.5 503.8,492.3 493.5,492.3 				"/>
			</g>
			<g>
				<polygon id="Fill-213" class="st1" points="514.2,481.6 524.5,481.6 524.5,476.4 514.2,476.4 				"/>
				<polygon id="Fill-214" class="st1" points="514.2,465.6 524.5,465.6 524.5,460.4 514.2,460.4 				"/>
				<polygon id="Fill-215" class="st1" points="514.2,449.6 524.5,449.6 524.5,444.4 514.2,444.4 				"/>
				<polygon id="Fill-216" class="st1" points="514.2,433.7 524.5,433.7 524.5,428.5 514.2,428.5 				"/>
				<polygon id="Fill-529" class="st1" points="514.2,481.6 524.5,481.6 524.5,476.4 514.2,476.4 				"/>
				<polygon id="Fill-530" class="st1" points="514.2,497.5 524.5,497.5 524.5,492.3 514.2,492.3 				"/>
				<polygon id="Fill-531" class="st1" points="514.2,513.5 524.5,513.5 524.5,508.3 514.2,508.3 				"/>
				<polygon id="Fill-532" class="st1" points="514.2,529.5 524.5,529.5 524.5,524.3 514.2,524.3 				"/>
			</g>
			<g>
				<polygon id="Fill-217" class="st1" points="534.8,481.6 545.2,481.6 545.2,476.4 534.8,476.4 				"/>
				<polygon id="Fill-218" class="st1" points="534.8,465.6 545.2,465.6 545.2,460.4 534.8,460.4 				"/>
				<polygon id="Fill-219" class="st1" points="534.8,449.6 545.2,449.6 545.2,444.4 534.8,444.4 				"/>
				<polygon id="Fill-220" class="st1" points="534.8,433.7 545.2,433.7 545.2,428.5 534.8,428.5 				"/>
				<polygon id="Fill-221" class="st1" points="534.8,417.7 545.2,417.7 545.2,412.5 534.8,412.5 				"/>
				<polygon id="Fill-222" class="st1" points="534.8,401.7 545.2,401.7 545.2,396.5 534.8,396.5 				"/>
				<polygon id="Fill-533" class="st1" points="534.8,481.6 545.2,481.6 545.2,476.4 534.8,476.4 				"/>
				<polygon id="Fill-534" class="st1" points="534.8,497.5 545.2,497.5 545.2,492.3 534.8,492.3 				"/>
				<polygon id="Fill-535" class="st1" points="534.8,513.5 545.2,513.5 545.2,508.3 534.8,508.3 				"/>
				<polygon id="Fill-536" class="st1" points="534.8,529.5 545.2,529.5 545.2,524.3 534.8,524.3 				"/>
				<polygon id="Fill-537" class="st1" points="534.8,545.4 545.2,545.4 545.2,540.3 534.8,540.3 				"/>
				<polygon id="Fill-538" class="st1" points="534.8,561.4 545.2,561.4 545.2,556.2 534.8,556.2 				"/>
			</g>
			<g>
				<polygon id="Fill-223" class="st1" points="555.5,481.6 565.9,481.6 565.9,476.4 555.5,476.4 				"/>
				<polygon id="Fill-224" class="st1" points="555.5,465.6 565.9,465.6 565.9,460.4 555.5,460.4 				"/>
				<polygon id="Fill-225" class="st1" points="555.5,449.6 565.9,449.6 565.9,444.4 555.5,444.4 				"/>
				<polygon id="Fill-539" class="st1" points="555.5,481.6 565.9,481.6 565.9,476.4 555.5,476.4 				"/>
				<polygon id="Fill-540" class="st1" points="555.5,497.5 565.9,497.5 565.9,492.3 555.5,492.3 				"/>
				<polygon id="Fill-541" class="st1" points="555.5,513.5 565.9,513.5 565.9,508.3 555.5,508.3 				"/>
			</g>
			<g>
				<polygon id="Fill-226" class="st1" points="576.2,481.6 586.6,481.6 586.6,476.4 576.2,476.4 				"/>
				<polygon id="Fill-227" class="st1" points="576.2,465.6 586.6,465.6 586.6,460.4 576.2,460.4 				"/>
				<polygon id="Fill-228" class="st1" points="576.2,449.6 586.6,449.6 586.6,444.4 576.2,444.4 				"/>
				<polygon id="Fill-229" class="st1" points="576.2,433.7 586.6,433.7 586.6,428.5 576.2,428.5 				"/>
				<polygon id="Fill-230" class="st1" points="576.2,417.7 586.6,417.7 586.6,412.5 576.2,412.5 				"/>
				<polygon id="Fill-231" class="st1" points="576.2,401.7 586.6,401.7 586.6,396.5 576.2,396.5 				"/>
				<polygon id="Fill-232" class="st1" points="576.2,385.8 586.6,385.8 586.6,380.6 576.2,380.6 				"/>
				<polygon id="Fill-233" class="st1" points="576.2,369.8 586.6,369.8 586.6,364.6 576.2,364.6 				"/>
				<polygon id="Fill-234" class="st1" points="576.2,353.8 586.6,353.8 586.6,348.6 576.2,348.6 				"/>
				<polygon id="Fill-542" class="st1" points="576.2,481.6 586.6,481.6 586.6,476.4 576.2,476.4 				"/>
				<polygon id="Fill-543" class="st1" points="576.2,497.5 586.6,497.5 586.6,492.3 576.2,492.3 				"/>
				<polygon id="Fill-544" class="st1" points="576.2,513.5 586.6,513.5 586.6,508.3 576.2,508.3 				"/>
				<polygon id="Fill-545" class="st1" points="576.2,529.5 586.6,529.5 586.6,524.3 576.2,524.3 				"/>
				<polygon id="Fill-546" class="st1" points="576.2,545.4 586.6,545.4 586.6,540.3 576.2,540.3 				"/>
				<polygon id="Fill-547" class="st1" points="576.2,561.4 586.6,561.4 586.6,556.2 576.2,556.2 				"/>
				<polygon id="Fill-548" class="st1" points="576.2,577.4 586.6,577.4 586.6,572.2 576.2,572.2 				"/>
				<polygon id="Fill-549" class="st1" points="576.2,593.4 586.6,593.4 586.6,588.2 576.2,588.2 				"/>
				<polygon id="Fill-550" class="st1" points="576.2,609.3 586.6,609.3 586.6,604.1 576.2,604.1 				"/>
			</g>
			<g>
				<polygon id="Fill-235" class="st1" points="596.9,481.6 607.2,481.6 607.2,476.4 596.9,476.4 				"/>
				<polygon id="Fill-236" class="st1" points="596.9,465.6 607.2,465.6 607.2,460.4 596.9,460.4 				"/>
				<polygon id="Fill-237" class="st1" points="596.9,449.6 607.2,449.6 607.2,444.4 596.9,444.4 				"/>
				<polygon id="Fill-238" class="st1" points="596.9,433.7 607.2,433.7 607.2,428.5 596.9,428.5 				"/>
				<polygon id="Fill-239" class="st1" points="596.9,417.7 607.2,417.7 607.2,412.5 596.9,412.5 				"/>
				<polygon id="Fill-240" class="st1" points="596.9,401.7 607.2,401.7 607.2,396.5 596.9,396.5 				"/>
				<polygon id="Fill-241" class="st1" points="596.9,385.8 607.2,385.8 607.2,380.6 596.9,380.6 				"/>
				<polygon id="Fill-551" class="st1" points="596.9,481.6 607.2,481.6 607.2,476.4 596.9,476.4 				"/>
				<polygon id="Fill-552" class="st1" points="596.9,497.5 607.2,497.5 607.2,492.3 596.9,492.3 				"/>
				<polygon id="Fill-553" class="st1" points="596.9,513.5 607.2,513.5 607.2,508.3 596.9,508.3 				"/>
				<polygon id="Fill-554" class="st1" points="596.9,529.5 607.2,529.5 607.2,524.3 596.9,524.3 				"/>
				<polygon id="Fill-555" class="st1" points="596.9,545.4 607.2,545.4 607.2,540.3 596.9,540.3 				"/>
				<polygon id="Fill-556" class="st1" points="596.9,561.4 607.2,561.4 607.2,556.2 596.9,556.2 				"/>
				<polygon id="Fill-557" class="st1" points="596.9,577.4 607.2,577.4 607.2,572.2 596.9,572.2 				"/>
			</g>
			<g>
				<polygon id="Fill-242" class="st1" points="617.6,481.6 627.9,481.6 627.9,476.4 617.6,476.4 				"/>
				<polygon id="Fill-243" class="st1" points="617.6,465.6 627.9,465.6 627.9,460.4 617.6,460.4 				"/>
				<polygon id="Fill-244" class="st1" points="617.6,449.6 627.9,449.6 627.9,444.4 617.6,444.4 				"/>
				<polygon id="Fill-245" class="st1" points="617.6,433.7 627.9,433.7 627.9,428.5 617.6,428.5 				"/>
				<polygon id="Fill-246" class="st1" points="617.6,417.7 627.9,417.7 627.9,412.5 617.6,412.5 				"/>
				<polygon id="Fill-247" class="st1" points="617.6,401.7 627.9,401.7 627.9,396.5 617.6,396.5 				"/>
				<polygon id="Fill-248" class="st1" points="617.6,385.8 627.9,385.8 627.9,380.6 617.6,380.6 				"/>
				<polygon id="Fill-249" class="st1" points="617.6,369.8 627.9,369.8 627.9,364.6 617.6,364.6 				"/>
				<polygon id="Fill-250" class="st1" points="617.6,353.8 627.9,353.8 627.9,348.6 617.6,348.6 				"/>
				<polygon id="Fill-251" class="st1" points="617.6,337.8 627.9,337.8 627.9,332.7 617.6,332.7 				"/>
				<polygon id="Fill-252" class="st1" points="617.6,321.9 627.9,321.9 627.9,316.7 617.6,316.7 				"/>
				<polygon id="Fill-253" class="st1" points="617.6,305.9 627.9,305.9 627.9,300.7 617.6,300.7 				"/>
				<polygon id="Fill-558" class="st1" points="617.6,481.6 627.9,481.6 627.9,476.4 617.6,476.4 				"/>
				<polygon id="Fill-559" class="st1" points="617.6,497.5 627.9,497.5 627.9,492.3 617.6,492.3 				"/>
				<polygon id="Fill-560" class="st1" points="617.6,513.5 627.9,513.5 627.9,508.3 617.6,508.3 				"/>
				<polygon id="Fill-561" class="st1" points="617.6,529.5 627.9,529.5 627.9,524.3 617.6,524.3 				"/>
				<polygon id="Fill-562" class="st1" points="617.6,545.4 627.9,545.4 627.9,540.3 617.6,540.3 				"/>
				<polygon id="Fill-563" class="st1" points="617.6,561.4 627.9,561.4 627.9,556.2 617.6,556.2 				"/>
				<polygon id="Fill-564" class="st1" points="617.6,577.4 627.9,577.4 627.9,572.2 617.6,572.2 				"/>
				<polygon id="Fill-565" class="st1" points="617.6,593.4 627.9,593.4 627.9,588.2 617.6,588.2 				"/>
				<polygon id="Fill-566" class="st1" points="617.6,609.3 627.9,609.3 627.9,604.1 617.6,604.1 				"/>
				<polygon id="Fill-567" class="st1" points="617.6,625.3 627.9,625.3 627.9,620.1 617.6,620.1 				"/>
				<polygon id="Fill-568" class="st1" points="617.6,641.3 627.9,641.3 627.9,636.1 617.6,636.1 				"/>
				<polygon id="Fill-569" class="st1" points="617.6,657.2 627.9,657.2 627.9,652 617.6,652 				"/>
			</g>
			<g>
				<polygon id="Fill-254" class="st1" points="638.2,481.6 648.6,481.6 648.6,476.4 638.2,476.4 				"/>
				<polygon id="Fill-255" class="st1" points="638.2,465.6 648.6,465.6 648.6,460.4 638.2,460.4 				"/>
				<polygon id="Fill-256" class="st1" points="638.2,449.6 648.6,449.6 648.6,444.4 638.2,444.4 				"/>
				<polygon id="Fill-257" class="st1" points="638.2,433.7 648.6,433.7 648.6,428.5 638.2,428.5 				"/>
				<polygon id="Fill-258" class="st1" points="638.2,417.7 648.6,417.7 648.6,412.5 638.2,412.5 				"/>
				<polygon id="Fill-259" class="st1" points="638.2,401.7 648.6,401.7 648.6,396.5 638.2,396.5 				"/>
				<polygon id="Fill-260" class="st1" points="638.2,385.8 648.6,385.8 648.6,380.6 638.2,380.6 				"/>
				<polygon id="Fill-261" class="st1" points="638.2,369.8 648.6,369.8 648.6,364.6 638.2,364.6 				"/>
				<polygon id="Fill-262" class="st1" points="638.2,353.8 648.6,353.8 648.6,348.6 638.2,348.6 				"/>
				<polygon id="Fill-570" class="st1" points="638.2,481.6 648.6,481.6 648.6,476.4 638.2,476.4 				"/>
				<polygon id="Fill-571" class="st1" points="638.2,497.5 648.6,497.5 648.6,492.3 638.2,492.3 				"/>
				<polygon id="Fill-572" class="st1" points="638.2,513.5 648.6,513.5 648.6,508.3 638.2,508.3 				"/>
				<polygon id="Fill-573" class="st1" points="638.2,529.5 648.6,529.5 648.6,524.3 638.2,524.3 				"/>
				<polygon id="Fill-574" class="st1" points="638.2,545.4 648.6,545.4 648.6,540.3 638.2,540.3 				"/>
				<polygon id="Fill-575" class="st1" points="638.2,561.4 648.6,561.4 648.6,556.2 638.2,556.2 				"/>
				<polygon id="Fill-576" class="st1" points="638.2,577.4 648.6,577.4 648.6,572.2 638.2,572.2 				"/>
				<polygon id="Fill-577" class="st1" points="638.2,593.4 648.6,593.4 648.6,588.2 638.2,588.2 				"/>
				<polygon id="Fill-578" class="st1" points="638.2,609.3 648.6,609.3 648.6,604.1 638.2,604.1 				"/>
			</g>
			<g>
				<polygon id="Fill-263" class="st1" points="658.9,481.6 669.3,481.6 669.3,476.4 658.9,476.4 				"/>
				<polygon id="Fill-264" class="st1" points="658.9,465.6 669.3,465.6 669.3,460.4 658.9,460.4 				"/>
				<polygon id="Fill-265" class="st1" points="658.9,449.6 669.3,449.6 669.3,444.4 658.9,444.4 				"/>
				<polygon id="Fill-266" class="st1" points="658.9,433.7 669.3,433.7 669.3,428.5 658.9,428.5 				"/>
				<polygon id="Fill-267" class="st1" points="658.9,417.7 669.3,417.7 669.3,412.5 658.9,412.5 				"/>
				<polygon id="Fill-268" class="st1" points="658.9,401.7 669.3,401.7 669.3,396.5 658.9,396.5 				"/>
				<polygon id="Fill-579" class="st1" points="658.9,481.6 669.3,481.6 669.3,476.4 658.9,476.4 				"/>
				<polygon id="Fill-580" class="st1" points="658.9,497.5 669.3,497.5 669.3,492.3 658.9,492.3 				"/>
				<polygon id="Fill-581" class="st1" points="658.9,513.5 669.3,513.5 669.3,508.3 658.9,508.3 				"/>
				<polygon id="Fill-582" class="st1" points="658.9,529.5 669.3,529.5 669.3,524.3 658.9,524.3 				"/>
				<polygon id="Fill-583" class="st1" points="658.9,545.4 669.3,545.4 669.3,540.3 658.9,540.3 				"/>
				<polygon id="Fill-584" class="st1" points="658.9,561.4 669.3,561.4 669.3,556.2 658.9,556.2 				"/>
			</g>
			<g>
				<polygon id="Fill-269" class="st1" points="679.6,481.6 690,481.6 690,476.4 679.6,476.4 				"/>
				<polygon id="Fill-270" class="st1" points="679.6,465.6 690,465.6 690,460.4 679.6,460.4 				"/>
				<polygon id="Fill-271" class="st1" points="679.6,449.6 690,449.6 690,444.4 679.6,444.4 				"/>
				<polygon id="Fill-585" class="st1" points="679.6,481.6 690,481.6 690,476.4 679.6,476.4 				"/>
				<polygon id="Fill-586" class="st1" points="679.6,497.5 690,497.5 690,492.3 679.6,492.3 				"/>
				<polygon id="Fill-587" class="st1" points="679.6,513.5 690,513.5 690,508.3 679.6,508.3 				"/>
			</g>
			<g>
				<polygon id="Fill-272" class="st1" points="700.3,481.6 710.6,481.6 710.6,476.4 700.3,476.4 				"/>
				<polygon id="Fill-273" class="st1" points="700.3,465.6 710.6,465.6 710.6,460.4 700.3,460.4 				"/>
				<polygon id="Fill-274" class="st1" points="700.3,449.6 710.6,449.6 710.6,444.4 700.3,444.4 				"/>
				<polygon id="Fill-275" class="st1" points="700.3,433.7 710.6,433.7 710.6,428.5 700.3,428.5 				"/>
				<polygon id="Fill-588" class="st1" points="700.3,481.6 710.6,481.6 710.6,476.4 700.3,476.4 				"/>
				<polygon id="Fill-589" class="st1" points="700.3,497.5 710.6,497.5 710.6,492.3 700.3,492.3 				"/>
				<polygon id="Fill-590" class="st1" points="700.3,513.5 710.6,513.5 710.6,508.3 700.3,508.3 				"/>
				<polygon id="Fill-591" class="st1" points="700.3,529.5 710.6,529.5 710.6,524.3 700.3,524.3 				"/>
			</g>
			<g>
				<polygon id="Fill-276" class="st1" points="721,481.6 731.3,481.6 731.3,476.4 721,476.4 				"/>
				<polygon id="Fill-277" class="st1" points="721,465.6 731.3,465.6 731.3,460.4 721,460.4 				"/>
				<polygon id="Fill-592" class="st1" points="721,481.6 731.3,481.6 731.3,476.4 721,476.4 				"/>
				<polygon id="Fill-593" class="st1" points="721,497.5 731.3,497.5 731.3,492.3 721,492.3 				"/>
			</g>
			<g>
				<polygon id="Fill-278" class="st1" points="741.7,481.6 752,481.6 752,476.4 741.7,476.4 				"/>
				<polygon id="Fill-279" class="st1" points="741.7,465.6 752,465.6 752,460.4 741.7,460.4 				"/>
				<polygon id="Fill-280" class="st1" points="741.7,449.6 752,449.6 752,444.4 741.7,444.4 				"/>
				<polygon id="Fill-281" class="st1" points="741.7,433.7 752,433.7 752,428.5 741.7,428.5 				"/>
				<polygon id="Fill-282" class="st1" points="741.7,417.7 752,417.7 752,412.5 741.7,412.5 				"/>
				<polygon id="Fill-594" class="st1" points="741.7,481.6 752,481.6 752,476.4 741.7,476.4 				"/>
				<polygon id="Fill-595" class="st1" points="741.7,497.5 752,497.5 752,492.3 741.7,492.3 				"/>
				<polygon id="Fill-596" class="st1" points="741.7,513.5 752,513.5 752,508.3 741.7,508.3 				"/>
				<polygon id="Fill-597" class="st1" points="741.7,529.5 752,529.5 752,524.3 741.7,524.3 				"/>
				<polygon id="Fill-598" class="st1" points="741.7,545.4 752,545.4 752,540.3 741.7,540.3 				"/>
			</g>
			<g>
				<polygon id="Fill-283" class="st1" points="762.3,481.6 772.7,481.6 772.7,476.4 762.3,476.4 				"/>
				<polygon id="Fill-284" class="st1" points="762.3,465.6 772.7,465.6 772.7,460.4 762.3,460.4 				"/>
				<polygon id="Fill-285" class="st1" points="762.3,449.6 772.7,449.6 772.7,444.4 762.3,444.4 				"/>
				<polygon id="Fill-599" class="st1" points="762.3,481.6 772.7,481.6 772.7,476.4 762.3,476.4 				"/>
				<polygon id="Fill-600" class="st1" points="762.3,497.5 772.7,497.5 772.7,492.3 762.3,492.3 				"/>
				<polygon id="Fill-601" class="st1" points="762.3,513.5 772.7,513.5 772.7,508.3 762.3,508.3 				"/>
			</g>
			<g>
				<g>
					<polygon id="Fill-286" class="st1" points="783,481.6 793.4,481.6 793.4,476.4 783,476.4 					"/>
					<polygon id="Fill-602" class="st1" points="783,481.6 793.4,481.6 793.4,476.4 783,476.4 					"/>
				</g>
				<polygon id="Fill-287" class="st1" points="803.7,481.6 814.1,481.6 814.1,476.4 803.7,476.4 				"/>
				<polygon id="Fill-288" class="st1" points="803.7,465.6 814.1,465.6 814.1,460.4 803.7,460.4 				"/>
				<polygon id="Fill-603" class="st1" points="803.7,481.6 814.1,481.6 814.1,476.4 803.7,476.4 				"/>
				<polygon id="Fill-604" class="st1" points="803.7,497.5 814.1,497.5 814.1,492.3 803.7,492.3 				"/>
			</g>
			<g>
				<polygon id="Fill-289" class="st1" points="824.4,481.6 834.8,481.6 834.8,476.4 824.4,476.4 				"/>
				<polygon id="Fill-290" class="st1" points="824.4,465.6 834.8,465.6 834.8,460.4 824.4,460.4 				"/>
				<polygon id="Fill-291" class="st1" points="824.4,449.6 834.8,449.6 834.8,444.4 824.4,444.4 				"/>
				<polygon id="Fill-292" class="st1" points="824.4,433.7 834.8,433.7 834.8,428.5 824.4,428.5 				"/>
				<polygon id="Fill-605" class="st1" points="824.4,481.6 834.8,481.6 834.8,476.4 824.4,476.4 				"/>
				<polygon id="Fill-606" class="st1" points="824.4,497.5 834.8,497.5 834.8,492.3 824.4,492.3 				"/>
				<polygon id="Fill-607" class="st1" points="824.4,513.5 834.8,513.5 834.8,508.3 824.4,508.3 				"/>
				<polygon id="Fill-608" class="st1" points="824.4,529.5 834.8,529.5 834.8,524.3 824.4,524.3 				"/>
			</g>
			<g>
				<polygon id="Fill-293" class="st1" points="845.1,481.6 855.4,481.6 855.4,476.4 845.1,476.4 				"/>
				<polygon id="Fill-294" class="st1" points="845.1,465.6 855.4,465.6 855.4,460.4 845.1,460.4 				"/>
				<polygon id="Fill-295" class="st1" points="845.1,449.6 855.4,449.6 855.4,444.4 845.1,444.4 				"/>
				<polygon id="Fill-296" class="st1" points="845.1,433.7 855.4,433.7 855.4,428.5 845.1,428.5 				"/>
				<polygon id="Fill-297" class="st1" points="845.1,417.7 855.4,417.7 855.4,412.5 845.1,412.5 				"/>
				<polygon id="Fill-298" class="st1" points="845.1,401.7 855.4,401.7 855.4,396.5 845.1,396.5 				"/>
				<polygon id="Fill-299" class="st1" points="845.1,401.7 855.4,401.7 855.4,396.5 845.1,396.5 				"/>
				<polygon id="Fill-300" class="st1" points="845.1,385.8 855.4,385.8 855.4,380.6 845.1,380.6 				"/>
				<polygon id="Fill-609" class="st1" points="845.1,481.6 855.4,481.6 855.4,476.4 845.1,476.4 				"/>
				<polygon id="Fill-610" class="st1" points="845.1,497.5 855.4,497.5 855.4,492.3 845.1,492.3 				"/>
				<polygon id="Fill-611" class="st1" points="845.1,513.5 855.4,513.5 855.4,508.3 845.1,508.3 				"/>
				<polygon id="Fill-612" class="st1" points="845.1,529.5 855.4,529.5 855.4,524.3 845.1,524.3 				"/>
				<polygon id="Fill-613" class="st1" points="845.1,545.4 855.4,545.4 855.4,540.3 845.1,540.3 				"/>
				<polygon id="Fill-614" class="st1" points="845.1,561.4 855.4,561.4 855.4,556.2 845.1,556.2 				"/>
				<polygon id="Fill-615" class="st1" points="845.1,561.4 855.4,561.4 855.4,556.2 845.1,556.2 				"/>
				<polygon id="Fill-616" class="st1" points="845.1,577.4 855.4,577.4 855.4,572.2 845.1,572.2 				"/>
			</g>
			<g>
				<polygon id="Fill-301" class="st1" points="865.8,481.6 876.1,481.6 876.1,476.4 865.8,476.4 				"/>
				<polygon id="Fill-302" class="st1" points="865.8,465.6 876.1,465.6 876.1,460.4 865.8,460.4 				"/>
				<polygon id="Fill-303" class="st1" points="865.8,449.6 876.1,449.6 876.1,444.4 865.8,444.4 				"/>
				<polygon id="Fill-304" class="st1" points="865.8,433.7 876.1,433.7 876.1,428.5 865.8,428.5 				"/>
				<polygon id="Fill-305" class="st1" points="865.8,417.7 876.1,417.7 876.1,412.5 865.8,412.5 				"/>
				<polygon id="Fill-617" class="st1" points="865.8,481.6 876.1,481.6 876.1,476.4 865.8,476.4 				"/>
				<polygon id="Fill-618" class="st1" points="865.8,497.5 876.1,497.5 876.1,492.3 865.8,492.3 				"/>
				<polygon id="Fill-619" class="st1" points="865.8,513.5 876.1,513.5 876.1,508.3 865.8,508.3 				"/>
				<polygon id="Fill-620" class="st1" points="865.8,529.5 876.1,529.5 876.1,524.3 865.8,524.3 				"/>
				<polygon id="Fill-621" class="st1" points="865.8,545.4 876.1,545.4 876.1,540.3 865.8,540.3 				"/>
			</g>
			<g>
				<g>
					<polygon id="Fill-306" class="st1" points="886.4,481.6 896.8,481.6 896.8,476.4 886.4,476.4 					"/>
					<polygon id="Fill-622" class="st1" points="886.4,481.6 896.8,481.6 896.8,476.4 886.4,476.4 					"/>
				</g>
				<polygon id="Fill-307" class="st1" points="907.1,481.6 917.5,481.6 917.5,476.4 907.1,476.4 				"/>
				<polygon id="Fill-308" class="st1" points="907.1,465.6 917.5,465.6 917.5,460.4 907.1,460.4 				"/>
				<polygon id="Fill-623" class="st1" points="907.1,481.6 917.5,481.6 917.5,476.4 907.1,476.4 				"/>
				<polygon id="Fill-624" class="st1" points="907.1,497.5 917.5,497.5 917.5,492.3 907.1,492.3 				"/>
				<polygon id="Fill-309" class="st1" points="927.8,481.6 938.2,481.6 938.2,476.4 927.8,476.4 				"/>
				<polygon id="Fill-625" class="st1" points="927.8,481.6 938.2,481.6 938.2,476.4 927.8,476.4 				"/>
				<polygon id="Fill-626" class="st1" points="948.5,481.6 958.9,481.6 958.9,476.4 948.5,476.4 				"/>
			</g>
		</g>
	</g>
</g>
</svg>
